/*
WARNING: Do NOT edit the input and output ports in this file in a text
editor if you plan to continue editing the block that represents it in
the Block Editor! File corruption is VERY likely to occur.
*/
/*
Copyright (C) 1991-2013 Altera Corporation
Your use of Altera Corporation's design tools, logic functions 
and other software and tools, and its AMPP partner logic 
functions, and any output files from any of the foregoing 
(including device programming or simulation files), and any 
associated documentation or information are expressly subject 
to the terms and conditions of the Altera Program License 
Subscription Agreement, Altera MegaCore Function License 
Agreement, or other applicable license agreement, including, 
without limitation, that your use is for the sole purpose of 
programming logic devices manufactured by Altera and sold by 
Altera or its authorized distributors.  Please refer to the 
applicable agreement for further details.
*/
(header "graphic" (version "1.4"))
(pin
	(input)
	(rect -160 -120 8 -104)
	(text "INPUT" (rect 125 0 153 10)(font "Arial" (font_size 6)))
	(text "b[4..0]" (rect 5 0 37 12)(font "Arial" ))
	(pt 168 8)
	(drawing
		(line (pt 84 12)(pt 109 12))
		(line (pt 84 4)(pt 109 4))
		(line (pt 113 8)(pt 168 8))
		(line (pt 84 12)(pt 84 4))
		(line (pt 109 4)(pt 113 8))
		(line (pt 109 12)(pt 113 8))
	)
	(text "VCC" (rect 128 7 148 17)(font "Arial" (font_size 6)))
)
(pin
	(output)
	(rect 840 3776 1016 3792)
	(text "OUTPUT" (rect 1 0 39 10)(font "Arial" (font_size 6)))
	(text "out[31..0]" (rect 90 0 137 12)(font "Arial" ))
	(pt 0 8)
	(drawing
		(line (pt 0 8)(pt 52 8))
		(line (pt 52 4)(pt 78 4))
		(line (pt 52 12)(pt 78 12))
		(line (pt 52 12)(pt 52 4))
		(line (pt 78 4)(pt 82 8))
		(line (pt 82 8)(pt 78 12))
		(line (pt 78 12)(pt 82 8))
	)
)
(symbol
	(rect 88 -32 120 16)
	(text "NOT" (rect 22 1 32 21)(font "Arial" (font_size 6))(vertical))
	(text "inst4" (rect -1 3 11 26)(font "Arial" )(vertical))
	(port
		(pt 16 0)
		(input)
		(text "IN" (rect 2 7 13 19)(font "Courier New" (bold))(invisible))
		(text "IN" (rect 13 2 25 13)(font "Courier New" (bold))(vertical)(invisible))
		(line (pt 16 0)(pt 16 13))
	)
	(port
		(pt 16 48)
		(output)
		(text "OUT" (rect 32 7 49 19)(font "Courier New" (bold))(invisible))
		(text "OUT" (rect 13 32 25 49)(font "Courier New" (bold))(vertical)(invisible))
		(line (pt 16 39)(pt 16 48))
	)
	(drawing
		(line (pt 7 13)(pt 25 13))
		(line (pt 25 13)(pt 16 31))
		(line (pt 7 13)(pt 16 31))
		(circle (rect 12 31 20 39))
	)
	(rotate270)
)
(symbol
	(rect 152 -32 184 16)
	(text "NOT" (rect 22 1 32 21)(font "Arial" (font_size 6))(vertical))
	(text "inst5" (rect -1 3 11 26)(font "Arial" )(vertical))
	(port
		(pt 16 0)
		(input)
		(text "IN" (rect 2 7 13 19)(font "Courier New" (bold))(invisible))
		(text "IN" (rect 13 2 25 13)(font "Courier New" (bold))(vertical)(invisible))
		(line (pt 16 0)(pt 16 13))
	)
	(port
		(pt 16 48)
		(output)
		(text "OUT" (rect 32 7 49 19)(font "Courier New" (bold))(invisible))
		(text "OUT" (rect 13 32 25 49)(font "Courier New" (bold))(vertical)(invisible))
		(line (pt 16 39)(pt 16 48))
	)
	(drawing
		(line (pt 7 13)(pt 25 13))
		(line (pt 25 13)(pt 16 31))
		(line (pt 7 13)(pt 16 31))
		(circle (rect 12 31 20 39))
	)
	(rotate270)
)
(symbol
	(rect 216 -32 248 16)
	(text "NOT" (rect 22 1 32 21)(font "Arial" (font_size 6))(vertical))
	(text "inst6" (rect -1 3 11 26)(font "Arial" )(vertical))
	(port
		(pt 16 0)
		(input)
		(text "IN" (rect 2 7 13 19)(font "Courier New" (bold))(invisible))
		(text "IN" (rect 13 2 25 13)(font "Courier New" (bold))(vertical)(invisible))
		(line (pt 16 0)(pt 16 13))
	)
	(port
		(pt 16 48)
		(output)
		(text "OUT" (rect 32 7 49 19)(font "Courier New" (bold))(invisible))
		(text "OUT" (rect 13 32 25 49)(font "Courier New" (bold))(vertical)(invisible))
		(line (pt 16 39)(pt 16 48))
	)
	(drawing
		(line (pt 7 13)(pt 25 13))
		(line (pt 25 13)(pt 16 31))
		(line (pt 7 13)(pt 16 31))
		(circle (rect 12 31 20 39))
	)
	(rotate270)
)
(symbol
	(rect 280 -32 312 16)
	(text "NOT" (rect 22 1 32 21)(font "Arial" (font_size 6))(vertical))
	(text "inst7" (rect -1 3 11 26)(font "Arial" )(vertical))
	(port
		(pt 16 0)
		(input)
		(text "IN" (rect 2 7 13 19)(font "Courier New" (bold))(invisible))
		(text "IN" (rect 13 2 25 13)(font "Courier New" (bold))(vertical)(invisible))
		(line (pt 16 0)(pt 16 13))
	)
	(port
		(pt 16 48)
		(output)
		(text "OUT" (rect 32 7 49 19)(font "Courier New" (bold))(invisible))
		(text "OUT" (rect 13 32 25 49)(font "Courier New" (bold))(vertical)(invisible))
		(line (pt 16 39)(pt 16 48))
	)
	(drawing
		(line (pt 7 13)(pt 25 13))
		(line (pt 25 13)(pt 16 31))
		(line (pt 7 13)(pt 16 31))
		(circle (rect 12 31 20 39))
	)
	(rotate270)
)
(symbol
	(rect 344 -32 376 16)
	(text "NOT" (rect 22 1 32 21)(font "Arial" (font_size 6))(vertical))
	(text "inst8" (rect -1 3 11 26)(font "Arial" )(vertical))
	(port
		(pt 16 0)
		(input)
		(text "IN" (rect 2 7 13 19)(font "Courier New" (bold))(invisible))
		(text "IN" (rect 13 2 25 13)(font "Courier New" (bold))(vertical)(invisible))
		(line (pt 16 0)(pt 16 13))
	)
	(port
		(pt 16 48)
		(output)
		(text "OUT" (rect 32 7 49 19)(font "Courier New" (bold))(invisible))
		(text "OUT" (rect 13 32 25 49)(font "Courier New" (bold))(vertical)(invisible))
		(line (pt 16 39)(pt 16 48))
	)
	(drawing
		(line (pt 7 13)(pt 25 13))
		(line (pt 25 13)(pt 16 31))
		(line (pt 7 13)(pt 16 31))
		(circle (rect 12 31 20 39))
	)
	(rotate270)
)
(symbol
	(rect 520 8 624 120)
	(text "AND5" (rect 34 -1 71 15)(font "Courier New" (font_size 10)(bold)))
	(text "inst37" (rect 3 101 32 113)(font "Arial" ))
	(port
		(pt 0 56)
		(input)
		(text "IN3" (rect 20 52 37 64)(font "Courier New" (bold)))
		(text "IN3" (rect 20 52 37 64)(font "Courier New" (bold)))
		(line (pt 0 56)(pt 16 56))
	)
	(port
		(pt 0 40)
		(input)
		(text "IN2" (rect 20 36 37 48)(font "Courier New" (bold)))
		(text "IN2" (rect 20 36 37 48)(font "Courier New" (bold)))
		(line (pt 0 40)(pt 16 40))
	)
	(port
		(pt 0 24)
		(input)
		(text "IN1" (rect 20 20 37 32)(font "Courier New" (bold)))
		(text "IN1" (rect 20 20 37 32)(font "Courier New" (bold)))
		(line (pt 0 24)(pt 16 24))
	)
	(port
		(pt 0 88)
		(input)
		(text "IN5" (rect 20 84 37 96)(font "Courier New" (bold)))
		(text "IN5" (rect 20 84 37 96)(font "Courier New" (bold)))
		(line (pt 0 88)(pt 16 88))
	)
	(port
		(pt 0 72)
		(input)
		(text "IN4" (rect 20 68 37 80)(font "Courier New" (bold)))
		(text "IN4" (rect 20 68 37 80)(font "Courier New" (bold)))
		(line (pt 0 72)(pt 16 72))
	)
	(port
		(pt 104 56)
		(output)
		(text "OUT" (rect 71 52 88 64)(font "Courier New" (bold)))
		(text "OUT" (rect 69 52 86 64)(font "Courier New" (bold)))
		(line (pt 88 56)(pt 104 56))
	)
	(drawing
		(line (pt 16 96)(pt 88 96))
		(line (pt 16 16)(pt 88 16))
		(line (pt 16 96)(pt 16 16))
		(line (pt 88 96)(pt 88 16))
	)
)
(symbol
	(rect 520 128 624 240)
	(text "AND5" (rect 34 -1 71 15)(font "Courier New" (font_size 10)(bold)))
	(text "inst38" (rect 3 101 32 113)(font "Arial" ))
	(port
		(pt 0 56)
		(input)
		(text "IN3" (rect 20 52 37 64)(font "Courier New" (bold)))
		(text "IN3" (rect 20 52 37 64)(font "Courier New" (bold)))
		(line (pt 0 56)(pt 16 56))
	)
	(port
		(pt 0 40)
		(input)
		(text "IN2" (rect 20 36 37 48)(font "Courier New" (bold)))
		(text "IN2" (rect 20 36 37 48)(font "Courier New" (bold)))
		(line (pt 0 40)(pt 16 40))
	)
	(port
		(pt 0 24)
		(input)
		(text "IN1" (rect 20 20 37 32)(font "Courier New" (bold)))
		(text "IN1" (rect 20 20 37 32)(font "Courier New" (bold)))
		(line (pt 0 24)(pt 16 24))
	)
	(port
		(pt 0 88)
		(input)
		(text "IN5" (rect 20 84 37 96)(font "Courier New" (bold)))
		(text "IN5" (rect 20 84 37 96)(font "Courier New" (bold)))
		(line (pt 0 88)(pt 16 88))
	)
	(port
		(pt 0 72)
		(input)
		(text "IN4" (rect 20 68 37 80)(font "Courier New" (bold)))
		(text "IN4" (rect 20 68 37 80)(font "Courier New" (bold)))
		(line (pt 0 72)(pt 16 72))
	)
	(port
		(pt 104 56)
		(output)
		(text "OUT" (rect 71 52 88 64)(font "Courier New" (bold)))
		(text "OUT" (rect 69 52 86 64)(font "Courier New" (bold)))
		(line (pt 88 56)(pt 104 56))
	)
	(drawing
		(line (pt 16 96)(pt 88 96))
		(line (pt 16 16)(pt 88 16))
		(line (pt 16 96)(pt 16 16))
		(line (pt 88 96)(pt 88 16))
	)
)
(symbol
	(rect 520 248 624 360)
	(text "AND5" (rect 34 -1 71 15)(font "Courier New" (font_size 10)(bold)))
	(text "inst39" (rect 3 101 32 113)(font "Arial" ))
	(port
		(pt 0 56)
		(input)
		(text "IN3" (rect 20 52 37 64)(font "Courier New" (bold)))
		(text "IN3" (rect 20 52 37 64)(font "Courier New" (bold)))
		(line (pt 0 56)(pt 16 56))
	)
	(port
		(pt 0 40)
		(input)
		(text "IN2" (rect 20 36 37 48)(font "Courier New" (bold)))
		(text "IN2" (rect 20 36 37 48)(font "Courier New" (bold)))
		(line (pt 0 40)(pt 16 40))
	)
	(port
		(pt 0 24)
		(input)
		(text "IN1" (rect 20 20 37 32)(font "Courier New" (bold)))
		(text "IN1" (rect 20 20 37 32)(font "Courier New" (bold)))
		(line (pt 0 24)(pt 16 24))
	)
	(port
		(pt 0 88)
		(input)
		(text "IN5" (rect 20 84 37 96)(font "Courier New" (bold)))
		(text "IN5" (rect 20 84 37 96)(font "Courier New" (bold)))
		(line (pt 0 88)(pt 16 88))
	)
	(port
		(pt 0 72)
		(input)
		(text "IN4" (rect 20 68 37 80)(font "Courier New" (bold)))
		(text "IN4" (rect 20 68 37 80)(font "Courier New" (bold)))
		(line (pt 0 72)(pt 16 72))
	)
	(port
		(pt 104 56)
		(output)
		(text "OUT" (rect 71 52 88 64)(font "Courier New" (bold)))
		(text "OUT" (rect 69 52 86 64)(font "Courier New" (bold)))
		(line (pt 88 56)(pt 104 56))
	)
	(drawing
		(line (pt 16 96)(pt 88 96))
		(line (pt 16 16)(pt 88 16))
		(line (pt 16 96)(pt 16 16))
		(line (pt 88 96)(pt 88 16))
	)
)
(symbol
	(rect 520 368 624 480)
	(text "AND5" (rect 34 -1 71 15)(font "Courier New" (font_size 10)(bold)))
	(text "inst40" (rect 3 101 32 113)(font "Arial" ))
	(port
		(pt 0 56)
		(input)
		(text "IN3" (rect 20 52 37 64)(font "Courier New" (bold)))
		(text "IN3" (rect 20 52 37 64)(font "Courier New" (bold)))
		(line (pt 0 56)(pt 16 56))
	)
	(port
		(pt 0 40)
		(input)
		(text "IN2" (rect 20 36 37 48)(font "Courier New" (bold)))
		(text "IN2" (rect 20 36 37 48)(font "Courier New" (bold)))
		(line (pt 0 40)(pt 16 40))
	)
	(port
		(pt 0 24)
		(input)
		(text "IN1" (rect 20 20 37 32)(font "Courier New" (bold)))
		(text "IN1" (rect 20 20 37 32)(font "Courier New" (bold)))
		(line (pt 0 24)(pt 16 24))
	)
	(port
		(pt 0 88)
		(input)
		(text "IN5" (rect 20 84 37 96)(font "Courier New" (bold)))
		(text "IN5" (rect 20 84 37 96)(font "Courier New" (bold)))
		(line (pt 0 88)(pt 16 88))
	)
	(port
		(pt 0 72)
		(input)
		(text "IN4" (rect 20 68 37 80)(font "Courier New" (bold)))
		(text "IN4" (rect 20 68 37 80)(font "Courier New" (bold)))
		(line (pt 0 72)(pt 16 72))
	)
	(port
		(pt 104 56)
		(output)
		(text "OUT" (rect 71 52 88 64)(font "Courier New" (bold)))
		(text "OUT" (rect 69 52 86 64)(font "Courier New" (bold)))
		(line (pt 88 56)(pt 104 56))
	)
	(drawing
		(line (pt 16 96)(pt 88 96))
		(line (pt 16 16)(pt 88 16))
		(line (pt 16 96)(pt 16 16))
		(line (pt 88 96)(pt 88 16))
	)
)
(symbol
	(rect 520 488 624 600)
	(text "AND5" (rect 34 -1 71 15)(font "Courier New" (font_size 10)(bold)))
	(text "inst41" (rect 3 101 32 113)(font "Arial" ))
	(port
		(pt 0 56)
		(input)
		(text "IN3" (rect 20 52 37 64)(font "Courier New" (bold)))
		(text "IN3" (rect 20 52 37 64)(font "Courier New" (bold)))
		(line (pt 0 56)(pt 16 56))
	)
	(port
		(pt 0 40)
		(input)
		(text "IN2" (rect 20 36 37 48)(font "Courier New" (bold)))
		(text "IN2" (rect 20 36 37 48)(font "Courier New" (bold)))
		(line (pt 0 40)(pt 16 40))
	)
	(port
		(pt 0 24)
		(input)
		(text "IN1" (rect 20 20 37 32)(font "Courier New" (bold)))
		(text "IN1" (rect 20 20 37 32)(font "Courier New" (bold)))
		(line (pt 0 24)(pt 16 24))
	)
	(port
		(pt 0 88)
		(input)
		(text "IN5" (rect 20 84 37 96)(font "Courier New" (bold)))
		(text "IN5" (rect 20 84 37 96)(font "Courier New" (bold)))
		(line (pt 0 88)(pt 16 88))
	)
	(port
		(pt 0 72)
		(input)
		(text "IN4" (rect 20 68 37 80)(font "Courier New" (bold)))
		(text "IN4" (rect 20 68 37 80)(font "Courier New" (bold)))
		(line (pt 0 72)(pt 16 72))
	)
	(port
		(pt 104 56)
		(output)
		(text "OUT" (rect 71 52 88 64)(font "Courier New" (bold)))
		(text "OUT" (rect 69 52 86 64)(font "Courier New" (bold)))
		(line (pt 88 56)(pt 104 56))
	)
	(drawing
		(line (pt 16 96)(pt 88 96))
		(line (pt 16 16)(pt 88 16))
		(line (pt 16 96)(pt 16 16))
		(line (pt 88 96)(pt 88 16))
	)
)
(symbol
	(rect 520 608 624 720)
	(text "AND5" (rect 34 -1 71 15)(font "Courier New" (font_size 10)(bold)))
	(text "inst42" (rect 3 101 32 113)(font "Arial" ))
	(port
		(pt 0 56)
		(input)
		(text "IN3" (rect 20 52 37 64)(font "Courier New" (bold)))
		(text "IN3" (rect 20 52 37 64)(font "Courier New" (bold)))
		(line (pt 0 56)(pt 16 56))
	)
	(port
		(pt 0 40)
		(input)
		(text "IN2" (rect 20 36 37 48)(font "Courier New" (bold)))
		(text "IN2" (rect 20 36 37 48)(font "Courier New" (bold)))
		(line (pt 0 40)(pt 16 40))
	)
	(port
		(pt 0 24)
		(input)
		(text "IN1" (rect 20 20 37 32)(font "Courier New" (bold)))
		(text "IN1" (rect 20 20 37 32)(font "Courier New" (bold)))
		(line (pt 0 24)(pt 16 24))
	)
	(port
		(pt 0 88)
		(input)
		(text "IN5" (rect 20 84 37 96)(font "Courier New" (bold)))
		(text "IN5" (rect 20 84 37 96)(font "Courier New" (bold)))
		(line (pt 0 88)(pt 16 88))
	)
	(port
		(pt 0 72)
		(input)
		(text "IN4" (rect 20 68 37 80)(font "Courier New" (bold)))
		(text "IN4" (rect 20 68 37 80)(font "Courier New" (bold)))
		(line (pt 0 72)(pt 16 72))
	)
	(port
		(pt 104 56)
		(output)
		(text "OUT" (rect 71 52 88 64)(font "Courier New" (bold)))
		(text "OUT" (rect 69 52 86 64)(font "Courier New" (bold)))
		(line (pt 88 56)(pt 104 56))
	)
	(drawing
		(line (pt 16 96)(pt 88 96))
		(line (pt 16 16)(pt 88 16))
		(line (pt 16 96)(pt 16 16))
		(line (pt 88 96)(pt 88 16))
	)
)
(symbol
	(rect 520 728 624 840)
	(text "AND5" (rect 34 -1 71 15)(font "Courier New" (font_size 10)(bold)))
	(text "inst43" (rect 3 101 32 113)(font "Arial" ))
	(port
		(pt 0 56)
		(input)
		(text "IN3" (rect 20 52 37 64)(font "Courier New" (bold)))
		(text "IN3" (rect 20 52 37 64)(font "Courier New" (bold)))
		(line (pt 0 56)(pt 16 56))
	)
	(port
		(pt 0 40)
		(input)
		(text "IN2" (rect 20 36 37 48)(font "Courier New" (bold)))
		(text "IN2" (rect 20 36 37 48)(font "Courier New" (bold)))
		(line (pt 0 40)(pt 16 40))
	)
	(port
		(pt 0 24)
		(input)
		(text "IN1" (rect 20 20 37 32)(font "Courier New" (bold)))
		(text "IN1" (rect 20 20 37 32)(font "Courier New" (bold)))
		(line (pt 0 24)(pt 16 24))
	)
	(port
		(pt 0 88)
		(input)
		(text "IN5" (rect 20 84 37 96)(font "Courier New" (bold)))
		(text "IN5" (rect 20 84 37 96)(font "Courier New" (bold)))
		(line (pt 0 88)(pt 16 88))
	)
	(port
		(pt 0 72)
		(input)
		(text "IN4" (rect 20 68 37 80)(font "Courier New" (bold)))
		(text "IN4" (rect 20 68 37 80)(font "Courier New" (bold)))
		(line (pt 0 72)(pt 16 72))
	)
	(port
		(pt 104 56)
		(output)
		(text "OUT" (rect 71 52 88 64)(font "Courier New" (bold)))
		(text "OUT" (rect 69 52 86 64)(font "Courier New" (bold)))
		(line (pt 88 56)(pt 104 56))
	)
	(drawing
		(line (pt 16 96)(pt 88 96))
		(line (pt 16 16)(pt 88 16))
		(line (pt 16 96)(pt 16 16))
		(line (pt 88 96)(pt 88 16))
	)
)
(symbol
	(rect 520 848 624 960)
	(text "AND5" (rect 34 -1 71 15)(font "Courier New" (font_size 10)(bold)))
	(text "inst44" (rect 3 101 32 113)(font "Arial" ))
	(port
		(pt 0 56)
		(input)
		(text "IN3" (rect 20 52 37 64)(font "Courier New" (bold)))
		(text "IN3" (rect 20 52 37 64)(font "Courier New" (bold)))
		(line (pt 0 56)(pt 16 56))
	)
	(port
		(pt 0 40)
		(input)
		(text "IN2" (rect 20 36 37 48)(font "Courier New" (bold)))
		(text "IN2" (rect 20 36 37 48)(font "Courier New" (bold)))
		(line (pt 0 40)(pt 16 40))
	)
	(port
		(pt 0 24)
		(input)
		(text "IN1" (rect 20 20 37 32)(font "Courier New" (bold)))
		(text "IN1" (rect 20 20 37 32)(font "Courier New" (bold)))
		(line (pt 0 24)(pt 16 24))
	)
	(port
		(pt 0 88)
		(input)
		(text "IN5" (rect 20 84 37 96)(font "Courier New" (bold)))
		(text "IN5" (rect 20 84 37 96)(font "Courier New" (bold)))
		(line (pt 0 88)(pt 16 88))
	)
	(port
		(pt 0 72)
		(input)
		(text "IN4" (rect 20 68 37 80)(font "Courier New" (bold)))
		(text "IN4" (rect 20 68 37 80)(font "Courier New" (bold)))
		(line (pt 0 72)(pt 16 72))
	)
	(port
		(pt 104 56)
		(output)
		(text "OUT" (rect 71 52 88 64)(font "Courier New" (bold)))
		(text "OUT" (rect 69 52 86 64)(font "Courier New" (bold)))
		(line (pt 88 56)(pt 104 56))
	)
	(drawing
		(line (pt 16 96)(pt 88 96))
		(line (pt 16 16)(pt 88 16))
		(line (pt 16 96)(pt 16 16))
		(line (pt 88 96)(pt 88 16))
	)
)
(symbol
	(rect 520 968 624 1080)
	(text "AND5" (rect 34 -1 71 15)(font "Courier New" (font_size 10)(bold)))
	(text "inst45" (rect 3 101 32 113)(font "Arial" ))
	(port
		(pt 0 56)
		(input)
		(text "IN3" (rect 20 52 37 64)(font "Courier New" (bold)))
		(text "IN3" (rect 20 52 37 64)(font "Courier New" (bold)))
		(line (pt 0 56)(pt 16 56))
	)
	(port
		(pt 0 40)
		(input)
		(text "IN2" (rect 20 36 37 48)(font "Courier New" (bold)))
		(text "IN2" (rect 20 36 37 48)(font "Courier New" (bold)))
		(line (pt 0 40)(pt 16 40))
	)
	(port
		(pt 0 24)
		(input)
		(text "IN1" (rect 20 20 37 32)(font "Courier New" (bold)))
		(text "IN1" (rect 20 20 37 32)(font "Courier New" (bold)))
		(line (pt 0 24)(pt 16 24))
	)
	(port
		(pt 0 88)
		(input)
		(text "IN5" (rect 20 84 37 96)(font "Courier New" (bold)))
		(text "IN5" (rect 20 84 37 96)(font "Courier New" (bold)))
		(line (pt 0 88)(pt 16 88))
	)
	(port
		(pt 0 72)
		(input)
		(text "IN4" (rect 20 68 37 80)(font "Courier New" (bold)))
		(text "IN4" (rect 20 68 37 80)(font "Courier New" (bold)))
		(line (pt 0 72)(pt 16 72))
	)
	(port
		(pt 104 56)
		(output)
		(text "OUT" (rect 71 52 88 64)(font "Courier New" (bold)))
		(text "OUT" (rect 69 52 86 64)(font "Courier New" (bold)))
		(line (pt 88 56)(pt 104 56))
	)
	(drawing
		(line (pt 16 96)(pt 88 96))
		(line (pt 16 16)(pt 88 16))
		(line (pt 16 96)(pt 16 16))
		(line (pt 88 96)(pt 88 16))
	)
)
(symbol
	(rect 520 1088 624 1200)
	(text "AND5" (rect 34 -1 71 15)(font "Courier New" (font_size 10)(bold)))
	(text "inst46" (rect 3 101 32 113)(font "Arial" ))
	(port
		(pt 0 56)
		(input)
		(text "IN3" (rect 20 52 37 64)(font "Courier New" (bold)))
		(text "IN3" (rect 20 52 37 64)(font "Courier New" (bold)))
		(line (pt 0 56)(pt 16 56))
	)
	(port
		(pt 0 40)
		(input)
		(text "IN2" (rect 20 36 37 48)(font "Courier New" (bold)))
		(text "IN2" (rect 20 36 37 48)(font "Courier New" (bold)))
		(line (pt 0 40)(pt 16 40))
	)
	(port
		(pt 0 24)
		(input)
		(text "IN1" (rect 20 20 37 32)(font "Courier New" (bold)))
		(text "IN1" (rect 20 20 37 32)(font "Courier New" (bold)))
		(line (pt 0 24)(pt 16 24))
	)
	(port
		(pt 0 88)
		(input)
		(text "IN5" (rect 20 84 37 96)(font "Courier New" (bold)))
		(text "IN5" (rect 20 84 37 96)(font "Courier New" (bold)))
		(line (pt 0 88)(pt 16 88))
	)
	(port
		(pt 0 72)
		(input)
		(text "IN4" (rect 20 68 37 80)(font "Courier New" (bold)))
		(text "IN4" (rect 20 68 37 80)(font "Courier New" (bold)))
		(line (pt 0 72)(pt 16 72))
	)
	(port
		(pt 104 56)
		(output)
		(text "OUT" (rect 71 52 88 64)(font "Courier New" (bold)))
		(text "OUT" (rect 69 52 86 64)(font "Courier New" (bold)))
		(line (pt 88 56)(pt 104 56))
	)
	(drawing
		(line (pt 16 96)(pt 88 96))
		(line (pt 16 16)(pt 88 16))
		(line (pt 16 96)(pt 16 16))
		(line (pt 88 96)(pt 88 16))
	)
)
(symbol
	(rect 520 1208 624 1320)
	(text "AND5" (rect 34 -1 71 15)(font "Courier New" (font_size 10)(bold)))
	(text "inst47" (rect 3 101 32 113)(font "Arial" ))
	(port
		(pt 0 56)
		(input)
		(text "IN3" (rect 20 52 37 64)(font "Courier New" (bold)))
		(text "IN3" (rect 20 52 37 64)(font "Courier New" (bold)))
		(line (pt 0 56)(pt 16 56))
	)
	(port
		(pt 0 40)
		(input)
		(text "IN2" (rect 20 36 37 48)(font "Courier New" (bold)))
		(text "IN2" (rect 20 36 37 48)(font "Courier New" (bold)))
		(line (pt 0 40)(pt 16 40))
	)
	(port
		(pt 0 24)
		(input)
		(text "IN1" (rect 20 20 37 32)(font "Courier New" (bold)))
		(text "IN1" (rect 20 20 37 32)(font "Courier New" (bold)))
		(line (pt 0 24)(pt 16 24))
	)
	(port
		(pt 0 88)
		(input)
		(text "IN5" (rect 20 84 37 96)(font "Courier New" (bold)))
		(text "IN5" (rect 20 84 37 96)(font "Courier New" (bold)))
		(line (pt 0 88)(pt 16 88))
	)
	(port
		(pt 0 72)
		(input)
		(text "IN4" (rect 20 68 37 80)(font "Courier New" (bold)))
		(text "IN4" (rect 20 68 37 80)(font "Courier New" (bold)))
		(line (pt 0 72)(pt 16 72))
	)
	(port
		(pt 104 56)
		(output)
		(text "OUT" (rect 71 52 88 64)(font "Courier New" (bold)))
		(text "OUT" (rect 69 52 86 64)(font "Courier New" (bold)))
		(line (pt 88 56)(pt 104 56))
	)
	(drawing
		(line (pt 16 96)(pt 88 96))
		(line (pt 16 16)(pt 88 16))
		(line (pt 16 96)(pt 16 16))
		(line (pt 88 96)(pt 88 16))
	)
)
(symbol
	(rect 520 1328 624 1440)
	(text "AND5" (rect 34 -1 71 15)(font "Courier New" (font_size 10)(bold)))
	(text "inst48" (rect 3 101 32 113)(font "Arial" ))
	(port
		(pt 0 56)
		(input)
		(text "IN3" (rect 20 52 37 64)(font "Courier New" (bold)))
		(text "IN3" (rect 20 52 37 64)(font "Courier New" (bold)))
		(line (pt 0 56)(pt 16 56))
	)
	(port
		(pt 0 40)
		(input)
		(text "IN2" (rect 20 36 37 48)(font "Courier New" (bold)))
		(text "IN2" (rect 20 36 37 48)(font "Courier New" (bold)))
		(line (pt 0 40)(pt 16 40))
	)
	(port
		(pt 0 24)
		(input)
		(text "IN1" (rect 20 20 37 32)(font "Courier New" (bold)))
		(text "IN1" (rect 20 20 37 32)(font "Courier New" (bold)))
		(line (pt 0 24)(pt 16 24))
	)
	(port
		(pt 0 88)
		(input)
		(text "IN5" (rect 20 84 37 96)(font "Courier New" (bold)))
		(text "IN5" (rect 20 84 37 96)(font "Courier New" (bold)))
		(line (pt 0 88)(pt 16 88))
	)
	(port
		(pt 0 72)
		(input)
		(text "IN4" (rect 20 68 37 80)(font "Courier New" (bold)))
		(text "IN4" (rect 20 68 37 80)(font "Courier New" (bold)))
		(line (pt 0 72)(pt 16 72))
	)
	(port
		(pt 104 56)
		(output)
		(text "OUT" (rect 71 52 88 64)(font "Courier New" (bold)))
		(text "OUT" (rect 69 52 86 64)(font "Courier New" (bold)))
		(line (pt 88 56)(pt 104 56))
	)
	(drawing
		(line (pt 16 96)(pt 88 96))
		(line (pt 16 16)(pt 88 16))
		(line (pt 16 96)(pt 16 16))
		(line (pt 88 96)(pt 88 16))
	)
)
(symbol
	(rect 520 1448 624 1560)
	(text "AND5" (rect 34 -1 71 15)(font "Courier New" (font_size 10)(bold)))
	(text "inst49" (rect 3 101 32 113)(font "Arial" ))
	(port
		(pt 0 56)
		(input)
		(text "IN3" (rect 20 52 37 64)(font "Courier New" (bold)))
		(text "IN3" (rect 20 52 37 64)(font "Courier New" (bold)))
		(line (pt 0 56)(pt 16 56))
	)
	(port
		(pt 0 40)
		(input)
		(text "IN2" (rect 20 36 37 48)(font "Courier New" (bold)))
		(text "IN2" (rect 20 36 37 48)(font "Courier New" (bold)))
		(line (pt 0 40)(pt 16 40))
	)
	(port
		(pt 0 24)
		(input)
		(text "IN1" (rect 20 20 37 32)(font "Courier New" (bold)))
		(text "IN1" (rect 20 20 37 32)(font "Courier New" (bold)))
		(line (pt 0 24)(pt 16 24))
	)
	(port
		(pt 0 88)
		(input)
		(text "IN5" (rect 20 84 37 96)(font "Courier New" (bold)))
		(text "IN5" (rect 20 84 37 96)(font "Courier New" (bold)))
		(line (pt 0 88)(pt 16 88))
	)
	(port
		(pt 0 72)
		(input)
		(text "IN4" (rect 20 68 37 80)(font "Courier New" (bold)))
		(text "IN4" (rect 20 68 37 80)(font "Courier New" (bold)))
		(line (pt 0 72)(pt 16 72))
	)
	(port
		(pt 104 56)
		(output)
		(text "OUT" (rect 71 52 88 64)(font "Courier New" (bold)))
		(text "OUT" (rect 69 52 86 64)(font "Courier New" (bold)))
		(line (pt 88 56)(pt 104 56))
	)
	(drawing
		(line (pt 16 96)(pt 88 96))
		(line (pt 16 16)(pt 88 16))
		(line (pt 16 96)(pt 16 16))
		(line (pt 88 96)(pt 88 16))
	)
)
(symbol
	(rect 520 1568 624 1680)
	(text "AND5" (rect 34 -1 71 15)(font "Courier New" (font_size 10)(bold)))
	(text "inst50" (rect 3 101 32 113)(font "Arial" ))
	(port
		(pt 0 56)
		(input)
		(text "IN3" (rect 20 52 37 64)(font "Courier New" (bold)))
		(text "IN3" (rect 20 52 37 64)(font "Courier New" (bold)))
		(line (pt 0 56)(pt 16 56))
	)
	(port
		(pt 0 40)
		(input)
		(text "IN2" (rect 20 36 37 48)(font "Courier New" (bold)))
		(text "IN2" (rect 20 36 37 48)(font "Courier New" (bold)))
		(line (pt 0 40)(pt 16 40))
	)
	(port
		(pt 0 24)
		(input)
		(text "IN1" (rect 20 20 37 32)(font "Courier New" (bold)))
		(text "IN1" (rect 20 20 37 32)(font "Courier New" (bold)))
		(line (pt 0 24)(pt 16 24))
	)
	(port
		(pt 0 88)
		(input)
		(text "IN5" (rect 20 84 37 96)(font "Courier New" (bold)))
		(text "IN5" (rect 20 84 37 96)(font "Courier New" (bold)))
		(line (pt 0 88)(pt 16 88))
	)
	(port
		(pt 0 72)
		(input)
		(text "IN4" (rect 20 68 37 80)(font "Courier New" (bold)))
		(text "IN4" (rect 20 68 37 80)(font "Courier New" (bold)))
		(line (pt 0 72)(pt 16 72))
	)
	(port
		(pt 104 56)
		(output)
		(text "OUT" (rect 71 52 88 64)(font "Courier New" (bold)))
		(text "OUT" (rect 69 52 86 64)(font "Courier New" (bold)))
		(line (pt 88 56)(pt 104 56))
	)
	(drawing
		(line (pt 16 96)(pt 88 96))
		(line (pt 16 16)(pt 88 16))
		(line (pt 16 96)(pt 16 16))
		(line (pt 88 96)(pt 88 16))
	)
)
(symbol
	(rect 520 1688 624 1800)
	(text "AND5" (rect 34 -1 71 15)(font "Courier New" (font_size 10)(bold)))
	(text "inst51" (rect 3 101 32 113)(font "Arial" ))
	(port
		(pt 0 56)
		(input)
		(text "IN3" (rect 20 52 37 64)(font "Courier New" (bold)))
		(text "IN3" (rect 20 52 37 64)(font "Courier New" (bold)))
		(line (pt 0 56)(pt 16 56))
	)
	(port
		(pt 0 40)
		(input)
		(text "IN2" (rect 20 36 37 48)(font "Courier New" (bold)))
		(text "IN2" (rect 20 36 37 48)(font "Courier New" (bold)))
		(line (pt 0 40)(pt 16 40))
	)
	(port
		(pt 0 24)
		(input)
		(text "IN1" (rect 20 20 37 32)(font "Courier New" (bold)))
		(text "IN1" (rect 20 20 37 32)(font "Courier New" (bold)))
		(line (pt 0 24)(pt 16 24))
	)
	(port
		(pt 0 88)
		(input)
		(text "IN5" (rect 20 84 37 96)(font "Courier New" (bold)))
		(text "IN5" (rect 20 84 37 96)(font "Courier New" (bold)))
		(line (pt 0 88)(pt 16 88))
	)
	(port
		(pt 0 72)
		(input)
		(text "IN4" (rect 20 68 37 80)(font "Courier New" (bold)))
		(text "IN4" (rect 20 68 37 80)(font "Courier New" (bold)))
		(line (pt 0 72)(pt 16 72))
	)
	(port
		(pt 104 56)
		(output)
		(text "OUT" (rect 71 52 88 64)(font "Courier New" (bold)))
		(text "OUT" (rect 69 52 86 64)(font "Courier New" (bold)))
		(line (pt 88 56)(pt 104 56))
	)
	(drawing
		(line (pt 16 96)(pt 88 96))
		(line (pt 16 16)(pt 88 16))
		(line (pt 16 96)(pt 16 16))
		(line (pt 88 96)(pt 88 16))
	)
)
(symbol
	(rect 520 1808 624 1920)
	(text "AND5" (rect 34 -1 71 15)(font "Courier New" (font_size 10)(bold)))
	(text "inst52" (rect 3 101 32 113)(font "Arial" ))
	(port
		(pt 0 56)
		(input)
		(text "IN3" (rect 20 52 37 64)(font "Courier New" (bold)))
		(text "IN3" (rect 20 52 37 64)(font "Courier New" (bold)))
		(line (pt 0 56)(pt 16 56))
	)
	(port
		(pt 0 40)
		(input)
		(text "IN2" (rect 20 36 37 48)(font "Courier New" (bold)))
		(text "IN2" (rect 20 36 37 48)(font "Courier New" (bold)))
		(line (pt 0 40)(pt 16 40))
	)
	(port
		(pt 0 24)
		(input)
		(text "IN1" (rect 20 20 37 32)(font "Courier New" (bold)))
		(text "IN1" (rect 20 20 37 32)(font "Courier New" (bold)))
		(line (pt 0 24)(pt 16 24))
	)
	(port
		(pt 0 88)
		(input)
		(text "IN5" (rect 20 84 37 96)(font "Courier New" (bold)))
		(text "IN5" (rect 20 84 37 96)(font "Courier New" (bold)))
		(line (pt 0 88)(pt 16 88))
	)
	(port
		(pt 0 72)
		(input)
		(text "IN4" (rect 20 68 37 80)(font "Courier New" (bold)))
		(text "IN4" (rect 20 68 37 80)(font "Courier New" (bold)))
		(line (pt 0 72)(pt 16 72))
	)
	(port
		(pt 104 56)
		(output)
		(text "OUT" (rect 71 52 88 64)(font "Courier New" (bold)))
		(text "OUT" (rect 69 52 86 64)(font "Courier New" (bold)))
		(line (pt 88 56)(pt 104 56))
	)
	(drawing
		(line (pt 16 96)(pt 88 96))
		(line (pt 16 16)(pt 88 16))
		(line (pt 16 96)(pt 16 16))
		(line (pt 88 96)(pt 88 16))
	)
)
(symbol
	(rect 520 1928 624 2040)
	(text "AND5" (rect 34 -1 71 15)(font "Courier New" (font_size 10)(bold)))
	(text "inst53" (rect 3 101 32 113)(font "Arial" ))
	(port
		(pt 0 56)
		(input)
		(text "IN3" (rect 20 52 37 64)(font "Courier New" (bold)))
		(text "IN3" (rect 20 52 37 64)(font "Courier New" (bold)))
		(line (pt 0 56)(pt 16 56))
	)
	(port
		(pt 0 40)
		(input)
		(text "IN2" (rect 20 36 37 48)(font "Courier New" (bold)))
		(text "IN2" (rect 20 36 37 48)(font "Courier New" (bold)))
		(line (pt 0 40)(pt 16 40))
	)
	(port
		(pt 0 24)
		(input)
		(text "IN1" (rect 20 20 37 32)(font "Courier New" (bold)))
		(text "IN1" (rect 20 20 37 32)(font "Courier New" (bold)))
		(line (pt 0 24)(pt 16 24))
	)
	(port
		(pt 0 88)
		(input)
		(text "IN5" (rect 20 84 37 96)(font "Courier New" (bold)))
		(text "IN5" (rect 20 84 37 96)(font "Courier New" (bold)))
		(line (pt 0 88)(pt 16 88))
	)
	(port
		(pt 0 72)
		(input)
		(text "IN4" (rect 20 68 37 80)(font "Courier New" (bold)))
		(text "IN4" (rect 20 68 37 80)(font "Courier New" (bold)))
		(line (pt 0 72)(pt 16 72))
	)
	(port
		(pt 104 56)
		(output)
		(text "OUT" (rect 71 52 88 64)(font "Courier New" (bold)))
		(text "OUT" (rect 69 52 86 64)(font "Courier New" (bold)))
		(line (pt 88 56)(pt 104 56))
	)
	(drawing
		(line (pt 16 96)(pt 88 96))
		(line (pt 16 16)(pt 88 16))
		(line (pt 16 96)(pt 16 16))
		(line (pt 88 96)(pt 88 16))
	)
)
(symbol
	(rect 520 2048 624 2160)
	(text "AND5" (rect 34 -1 71 15)(font "Courier New" (font_size 10)(bold)))
	(text "inst54" (rect 3 101 32 113)(font "Arial" ))
	(port
		(pt 0 56)
		(input)
		(text "IN3" (rect 20 52 37 64)(font "Courier New" (bold)))
		(text "IN3" (rect 20 52 37 64)(font "Courier New" (bold)))
		(line (pt 0 56)(pt 16 56))
	)
	(port
		(pt 0 40)
		(input)
		(text "IN2" (rect 20 36 37 48)(font "Courier New" (bold)))
		(text "IN2" (rect 20 36 37 48)(font "Courier New" (bold)))
		(line (pt 0 40)(pt 16 40))
	)
	(port
		(pt 0 24)
		(input)
		(text "IN1" (rect 20 20 37 32)(font "Courier New" (bold)))
		(text "IN1" (rect 20 20 37 32)(font "Courier New" (bold)))
		(line (pt 0 24)(pt 16 24))
	)
	(port
		(pt 0 88)
		(input)
		(text "IN5" (rect 20 84 37 96)(font "Courier New" (bold)))
		(text "IN5" (rect 20 84 37 96)(font "Courier New" (bold)))
		(line (pt 0 88)(pt 16 88))
	)
	(port
		(pt 0 72)
		(input)
		(text "IN4" (rect 20 68 37 80)(font "Courier New" (bold)))
		(text "IN4" (rect 20 68 37 80)(font "Courier New" (bold)))
		(line (pt 0 72)(pt 16 72))
	)
	(port
		(pt 104 56)
		(output)
		(text "OUT" (rect 71 52 88 64)(font "Courier New" (bold)))
		(text "OUT" (rect 69 52 86 64)(font "Courier New" (bold)))
		(line (pt 88 56)(pt 104 56))
	)
	(drawing
		(line (pt 16 96)(pt 88 96))
		(line (pt 16 16)(pt 88 16))
		(line (pt 16 96)(pt 16 16))
		(line (pt 88 96)(pt 88 16))
	)
)
(symbol
	(rect 520 2168 624 2280)
	(text "AND5" (rect 34 -1 71 15)(font "Courier New" (font_size 10)(bold)))
	(text "inst55" (rect 3 101 32 113)(font "Arial" ))
	(port
		(pt 0 56)
		(input)
		(text "IN3" (rect 20 52 37 64)(font "Courier New" (bold)))
		(text "IN3" (rect 20 52 37 64)(font "Courier New" (bold)))
		(line (pt 0 56)(pt 16 56))
	)
	(port
		(pt 0 40)
		(input)
		(text "IN2" (rect 20 36 37 48)(font "Courier New" (bold)))
		(text "IN2" (rect 20 36 37 48)(font "Courier New" (bold)))
		(line (pt 0 40)(pt 16 40))
	)
	(port
		(pt 0 24)
		(input)
		(text "IN1" (rect 20 20 37 32)(font "Courier New" (bold)))
		(text "IN1" (rect 20 20 37 32)(font "Courier New" (bold)))
		(line (pt 0 24)(pt 16 24))
	)
	(port
		(pt 0 88)
		(input)
		(text "IN5" (rect 20 84 37 96)(font "Courier New" (bold)))
		(text "IN5" (rect 20 84 37 96)(font "Courier New" (bold)))
		(line (pt 0 88)(pt 16 88))
	)
	(port
		(pt 0 72)
		(input)
		(text "IN4" (rect 20 68 37 80)(font "Courier New" (bold)))
		(text "IN4" (rect 20 68 37 80)(font "Courier New" (bold)))
		(line (pt 0 72)(pt 16 72))
	)
	(port
		(pt 104 56)
		(output)
		(text "OUT" (rect 71 52 88 64)(font "Courier New" (bold)))
		(text "OUT" (rect 69 52 86 64)(font "Courier New" (bold)))
		(line (pt 88 56)(pt 104 56))
	)
	(drawing
		(line (pt 16 96)(pt 88 96))
		(line (pt 16 16)(pt 88 16))
		(line (pt 16 96)(pt 16 16))
		(line (pt 88 96)(pt 88 16))
	)
)
(symbol
	(rect 520 2288 624 2400)
	(text "AND5" (rect 34 -1 71 15)(font "Courier New" (font_size 10)(bold)))
	(text "inst56" (rect 3 101 32 113)(font "Arial" ))
	(port
		(pt 0 56)
		(input)
		(text "IN3" (rect 20 52 37 64)(font "Courier New" (bold)))
		(text "IN3" (rect 20 52 37 64)(font "Courier New" (bold)))
		(line (pt 0 56)(pt 16 56))
	)
	(port
		(pt 0 40)
		(input)
		(text "IN2" (rect 20 36 37 48)(font "Courier New" (bold)))
		(text "IN2" (rect 20 36 37 48)(font "Courier New" (bold)))
		(line (pt 0 40)(pt 16 40))
	)
	(port
		(pt 0 24)
		(input)
		(text "IN1" (rect 20 20 37 32)(font "Courier New" (bold)))
		(text "IN1" (rect 20 20 37 32)(font "Courier New" (bold)))
		(line (pt 0 24)(pt 16 24))
	)
	(port
		(pt 0 88)
		(input)
		(text "IN5" (rect 20 84 37 96)(font "Courier New" (bold)))
		(text "IN5" (rect 20 84 37 96)(font "Courier New" (bold)))
		(line (pt 0 88)(pt 16 88))
	)
	(port
		(pt 0 72)
		(input)
		(text "IN4" (rect 20 68 37 80)(font "Courier New" (bold)))
		(text "IN4" (rect 20 68 37 80)(font "Courier New" (bold)))
		(line (pt 0 72)(pt 16 72))
	)
	(port
		(pt 104 56)
		(output)
		(text "OUT" (rect 71 52 88 64)(font "Courier New" (bold)))
		(text "OUT" (rect 69 52 86 64)(font "Courier New" (bold)))
		(line (pt 88 56)(pt 104 56))
	)
	(drawing
		(line (pt 16 96)(pt 88 96))
		(line (pt 16 16)(pt 88 16))
		(line (pt 16 96)(pt 16 16))
		(line (pt 88 96)(pt 88 16))
	)
)
(symbol
	(rect 520 2408 624 2520)
	(text "AND5" (rect 34 -1 71 15)(font "Courier New" (font_size 10)(bold)))
	(text "inst57" (rect 3 101 32 113)(font "Arial" ))
	(port
		(pt 0 56)
		(input)
		(text "IN3" (rect 20 52 37 64)(font "Courier New" (bold)))
		(text "IN3" (rect 20 52 37 64)(font "Courier New" (bold)))
		(line (pt 0 56)(pt 16 56))
	)
	(port
		(pt 0 40)
		(input)
		(text "IN2" (rect 20 36 37 48)(font "Courier New" (bold)))
		(text "IN2" (rect 20 36 37 48)(font "Courier New" (bold)))
		(line (pt 0 40)(pt 16 40))
	)
	(port
		(pt 0 24)
		(input)
		(text "IN1" (rect 20 20 37 32)(font "Courier New" (bold)))
		(text "IN1" (rect 20 20 37 32)(font "Courier New" (bold)))
		(line (pt 0 24)(pt 16 24))
	)
	(port
		(pt 0 88)
		(input)
		(text "IN5" (rect 20 84 37 96)(font "Courier New" (bold)))
		(text "IN5" (rect 20 84 37 96)(font "Courier New" (bold)))
		(line (pt 0 88)(pt 16 88))
	)
	(port
		(pt 0 72)
		(input)
		(text "IN4" (rect 20 68 37 80)(font "Courier New" (bold)))
		(text "IN4" (rect 20 68 37 80)(font "Courier New" (bold)))
		(line (pt 0 72)(pt 16 72))
	)
	(port
		(pt 104 56)
		(output)
		(text "OUT" (rect 71 52 88 64)(font "Courier New" (bold)))
		(text "OUT" (rect 69 52 86 64)(font "Courier New" (bold)))
		(line (pt 88 56)(pt 104 56))
	)
	(drawing
		(line (pt 16 96)(pt 88 96))
		(line (pt 16 16)(pt 88 16))
		(line (pt 16 96)(pt 16 16))
		(line (pt 88 96)(pt 88 16))
	)
)
(symbol
	(rect 520 2528 624 2640)
	(text "AND5" (rect 34 -1 71 15)(font "Courier New" (font_size 10)(bold)))
	(text "inst58" (rect 3 101 32 113)(font "Arial" ))
	(port
		(pt 0 56)
		(input)
		(text "IN3" (rect 20 52 37 64)(font "Courier New" (bold)))
		(text "IN3" (rect 20 52 37 64)(font "Courier New" (bold)))
		(line (pt 0 56)(pt 16 56))
	)
	(port
		(pt 0 40)
		(input)
		(text "IN2" (rect 20 36 37 48)(font "Courier New" (bold)))
		(text "IN2" (rect 20 36 37 48)(font "Courier New" (bold)))
		(line (pt 0 40)(pt 16 40))
	)
	(port
		(pt 0 24)
		(input)
		(text "IN1" (rect 20 20 37 32)(font "Courier New" (bold)))
		(text "IN1" (rect 20 20 37 32)(font "Courier New" (bold)))
		(line (pt 0 24)(pt 16 24))
	)
	(port
		(pt 0 88)
		(input)
		(text "IN5" (rect 20 84 37 96)(font "Courier New" (bold)))
		(text "IN5" (rect 20 84 37 96)(font "Courier New" (bold)))
		(line (pt 0 88)(pt 16 88))
	)
	(port
		(pt 0 72)
		(input)
		(text "IN4" (rect 20 68 37 80)(font "Courier New" (bold)))
		(text "IN4" (rect 20 68 37 80)(font "Courier New" (bold)))
		(line (pt 0 72)(pt 16 72))
	)
	(port
		(pt 104 56)
		(output)
		(text "OUT" (rect 71 52 88 64)(font "Courier New" (bold)))
		(text "OUT" (rect 69 52 86 64)(font "Courier New" (bold)))
		(line (pt 88 56)(pt 104 56))
	)
	(drawing
		(line (pt 16 96)(pt 88 96))
		(line (pt 16 16)(pt 88 16))
		(line (pt 16 96)(pt 16 16))
		(line (pt 88 96)(pt 88 16))
	)
)
(symbol
	(rect 520 2648 624 2760)
	(text "AND5" (rect 34 -1 71 15)(font "Courier New" (font_size 10)(bold)))
	(text "inst59" (rect 3 101 32 113)(font "Arial" ))
	(port
		(pt 0 56)
		(input)
		(text "IN3" (rect 20 52 37 64)(font "Courier New" (bold)))
		(text "IN3" (rect 20 52 37 64)(font "Courier New" (bold)))
		(line (pt 0 56)(pt 16 56))
	)
	(port
		(pt 0 40)
		(input)
		(text "IN2" (rect 20 36 37 48)(font "Courier New" (bold)))
		(text "IN2" (rect 20 36 37 48)(font "Courier New" (bold)))
		(line (pt 0 40)(pt 16 40))
	)
	(port
		(pt 0 24)
		(input)
		(text "IN1" (rect 20 20 37 32)(font "Courier New" (bold)))
		(text "IN1" (rect 20 20 37 32)(font "Courier New" (bold)))
		(line (pt 0 24)(pt 16 24))
	)
	(port
		(pt 0 88)
		(input)
		(text "IN5" (rect 20 84 37 96)(font "Courier New" (bold)))
		(text "IN5" (rect 20 84 37 96)(font "Courier New" (bold)))
		(line (pt 0 88)(pt 16 88))
	)
	(port
		(pt 0 72)
		(input)
		(text "IN4" (rect 20 68 37 80)(font "Courier New" (bold)))
		(text "IN4" (rect 20 68 37 80)(font "Courier New" (bold)))
		(line (pt 0 72)(pt 16 72))
	)
	(port
		(pt 104 56)
		(output)
		(text "OUT" (rect 71 52 88 64)(font "Courier New" (bold)))
		(text "OUT" (rect 69 52 86 64)(font "Courier New" (bold)))
		(line (pt 88 56)(pt 104 56))
	)
	(drawing
		(line (pt 16 96)(pt 88 96))
		(line (pt 16 16)(pt 88 16))
		(line (pt 16 96)(pt 16 16))
		(line (pt 88 96)(pt 88 16))
	)
)
(symbol
	(rect 520 2768 624 2880)
	(text "AND5" (rect 34 -1 71 15)(font "Courier New" (font_size 10)(bold)))
	(text "inst60" (rect 3 101 32 113)(font "Arial" ))
	(port
		(pt 0 56)
		(input)
		(text "IN3" (rect 20 52 37 64)(font "Courier New" (bold)))
		(text "IN3" (rect 20 52 37 64)(font "Courier New" (bold)))
		(line (pt 0 56)(pt 16 56))
	)
	(port
		(pt 0 40)
		(input)
		(text "IN2" (rect 20 36 37 48)(font "Courier New" (bold)))
		(text "IN2" (rect 20 36 37 48)(font "Courier New" (bold)))
		(line (pt 0 40)(pt 16 40))
	)
	(port
		(pt 0 24)
		(input)
		(text "IN1" (rect 20 20 37 32)(font "Courier New" (bold)))
		(text "IN1" (rect 20 20 37 32)(font "Courier New" (bold)))
		(line (pt 0 24)(pt 16 24))
	)
	(port
		(pt 0 88)
		(input)
		(text "IN5" (rect 20 84 37 96)(font "Courier New" (bold)))
		(text "IN5" (rect 20 84 37 96)(font "Courier New" (bold)))
		(line (pt 0 88)(pt 16 88))
	)
	(port
		(pt 0 72)
		(input)
		(text "IN4" (rect 20 68 37 80)(font "Courier New" (bold)))
		(text "IN4" (rect 20 68 37 80)(font "Courier New" (bold)))
		(line (pt 0 72)(pt 16 72))
	)
	(port
		(pt 104 56)
		(output)
		(text "OUT" (rect 71 52 88 64)(font "Courier New" (bold)))
		(text "OUT" (rect 69 52 86 64)(font "Courier New" (bold)))
		(line (pt 88 56)(pt 104 56))
	)
	(drawing
		(line (pt 16 96)(pt 88 96))
		(line (pt 16 16)(pt 88 16))
		(line (pt 16 96)(pt 16 16))
		(line (pt 88 96)(pt 88 16))
	)
)
(symbol
	(rect 520 2888 624 3000)
	(text "AND5" (rect 34 -1 71 15)(font "Courier New" (font_size 10)(bold)))
	(text "inst61" (rect 3 101 32 113)(font "Arial" ))
	(port
		(pt 0 56)
		(input)
		(text "IN3" (rect 20 52 37 64)(font "Courier New" (bold)))
		(text "IN3" (rect 20 52 37 64)(font "Courier New" (bold)))
		(line (pt 0 56)(pt 16 56))
	)
	(port
		(pt 0 40)
		(input)
		(text "IN2" (rect 20 36 37 48)(font "Courier New" (bold)))
		(text "IN2" (rect 20 36 37 48)(font "Courier New" (bold)))
		(line (pt 0 40)(pt 16 40))
	)
	(port
		(pt 0 24)
		(input)
		(text "IN1" (rect 20 20 37 32)(font "Courier New" (bold)))
		(text "IN1" (rect 20 20 37 32)(font "Courier New" (bold)))
		(line (pt 0 24)(pt 16 24))
	)
	(port
		(pt 0 88)
		(input)
		(text "IN5" (rect 20 84 37 96)(font "Courier New" (bold)))
		(text "IN5" (rect 20 84 37 96)(font "Courier New" (bold)))
		(line (pt 0 88)(pt 16 88))
	)
	(port
		(pt 0 72)
		(input)
		(text "IN4" (rect 20 68 37 80)(font "Courier New" (bold)))
		(text "IN4" (rect 20 68 37 80)(font "Courier New" (bold)))
		(line (pt 0 72)(pt 16 72))
	)
	(port
		(pt 104 56)
		(output)
		(text "OUT" (rect 71 52 88 64)(font "Courier New" (bold)))
		(text "OUT" (rect 69 52 86 64)(font "Courier New" (bold)))
		(line (pt 88 56)(pt 104 56))
	)
	(drawing
		(line (pt 16 96)(pt 88 96))
		(line (pt 16 16)(pt 88 16))
		(line (pt 16 96)(pt 16 16))
		(line (pt 88 96)(pt 88 16))
	)
)
(symbol
	(rect 520 3008 624 3120)
	(text "AND5" (rect 34 -1 71 15)(font "Courier New" (font_size 10)(bold)))
	(text "inst62" (rect 3 101 32 113)(font "Arial" ))
	(port
		(pt 0 56)
		(input)
		(text "IN3" (rect 20 52 37 64)(font "Courier New" (bold)))
		(text "IN3" (rect 20 52 37 64)(font "Courier New" (bold)))
		(line (pt 0 56)(pt 16 56))
	)
	(port
		(pt 0 40)
		(input)
		(text "IN2" (rect 20 36 37 48)(font "Courier New" (bold)))
		(text "IN2" (rect 20 36 37 48)(font "Courier New" (bold)))
		(line (pt 0 40)(pt 16 40))
	)
	(port
		(pt 0 24)
		(input)
		(text "IN1" (rect 20 20 37 32)(font "Courier New" (bold)))
		(text "IN1" (rect 20 20 37 32)(font "Courier New" (bold)))
		(line (pt 0 24)(pt 16 24))
	)
	(port
		(pt 0 88)
		(input)
		(text "IN5" (rect 20 84 37 96)(font "Courier New" (bold)))
		(text "IN5" (rect 20 84 37 96)(font "Courier New" (bold)))
		(line (pt 0 88)(pt 16 88))
	)
	(port
		(pt 0 72)
		(input)
		(text "IN4" (rect 20 68 37 80)(font "Courier New" (bold)))
		(text "IN4" (rect 20 68 37 80)(font "Courier New" (bold)))
		(line (pt 0 72)(pt 16 72))
	)
	(port
		(pt 104 56)
		(output)
		(text "OUT" (rect 71 52 88 64)(font "Courier New" (bold)))
		(text "OUT" (rect 69 52 86 64)(font "Courier New" (bold)))
		(line (pt 88 56)(pt 104 56))
	)
	(drawing
		(line (pt 16 96)(pt 88 96))
		(line (pt 16 16)(pt 88 16))
		(line (pt 16 96)(pt 16 16))
		(line (pt 88 96)(pt 88 16))
	)
)
(symbol
	(rect 520 3128 624 3240)
	(text "AND5" (rect 34 -1 71 15)(font "Courier New" (font_size 10)(bold)))
	(text "inst63" (rect 3 101 32 113)(font "Arial" ))
	(port
		(pt 0 56)
		(input)
		(text "IN3" (rect 20 52 37 64)(font "Courier New" (bold)))
		(text "IN3" (rect 20 52 37 64)(font "Courier New" (bold)))
		(line (pt 0 56)(pt 16 56))
	)
	(port
		(pt 0 40)
		(input)
		(text "IN2" (rect 20 36 37 48)(font "Courier New" (bold)))
		(text "IN2" (rect 20 36 37 48)(font "Courier New" (bold)))
		(line (pt 0 40)(pt 16 40))
	)
	(port
		(pt 0 24)
		(input)
		(text "IN1" (rect 20 20 37 32)(font "Courier New" (bold)))
		(text "IN1" (rect 20 20 37 32)(font "Courier New" (bold)))
		(line (pt 0 24)(pt 16 24))
	)
	(port
		(pt 0 88)
		(input)
		(text "IN5" (rect 20 84 37 96)(font "Courier New" (bold)))
		(text "IN5" (rect 20 84 37 96)(font "Courier New" (bold)))
		(line (pt 0 88)(pt 16 88))
	)
	(port
		(pt 0 72)
		(input)
		(text "IN4" (rect 20 68 37 80)(font "Courier New" (bold)))
		(text "IN4" (rect 20 68 37 80)(font "Courier New" (bold)))
		(line (pt 0 72)(pt 16 72))
	)
	(port
		(pt 104 56)
		(output)
		(text "OUT" (rect 71 52 88 64)(font "Courier New" (bold)))
		(text "OUT" (rect 69 52 86 64)(font "Courier New" (bold)))
		(line (pt 88 56)(pt 104 56))
	)
	(drawing
		(line (pt 16 96)(pt 88 96))
		(line (pt 16 16)(pt 88 16))
		(line (pt 16 96)(pt 16 16))
		(line (pt 88 96)(pt 88 16))
	)
)
(symbol
	(rect 520 3248 624 3360)
	(text "AND5" (rect 34 -1 71 15)(font "Courier New" (font_size 10)(bold)))
	(text "inst64" (rect 3 101 32 113)(font "Arial" ))
	(port
		(pt 0 56)
		(input)
		(text "IN3" (rect 20 52 37 64)(font "Courier New" (bold)))
		(text "IN3" (rect 20 52 37 64)(font "Courier New" (bold)))
		(line (pt 0 56)(pt 16 56))
	)
	(port
		(pt 0 40)
		(input)
		(text "IN2" (rect 20 36 37 48)(font "Courier New" (bold)))
		(text "IN2" (rect 20 36 37 48)(font "Courier New" (bold)))
		(line (pt 0 40)(pt 16 40))
	)
	(port
		(pt 0 24)
		(input)
		(text "IN1" (rect 20 20 37 32)(font "Courier New" (bold)))
		(text "IN1" (rect 20 20 37 32)(font "Courier New" (bold)))
		(line (pt 0 24)(pt 16 24))
	)
	(port
		(pt 0 88)
		(input)
		(text "IN5" (rect 20 84 37 96)(font "Courier New" (bold)))
		(text "IN5" (rect 20 84 37 96)(font "Courier New" (bold)))
		(line (pt 0 88)(pt 16 88))
	)
	(port
		(pt 0 72)
		(input)
		(text "IN4" (rect 20 68 37 80)(font "Courier New" (bold)))
		(text "IN4" (rect 20 68 37 80)(font "Courier New" (bold)))
		(line (pt 0 72)(pt 16 72))
	)
	(port
		(pt 104 56)
		(output)
		(text "OUT" (rect 71 52 88 64)(font "Courier New" (bold)))
		(text "OUT" (rect 69 52 86 64)(font "Courier New" (bold)))
		(line (pt 88 56)(pt 104 56))
	)
	(drawing
		(line (pt 16 96)(pt 88 96))
		(line (pt 16 16)(pt 88 16))
		(line (pt 16 96)(pt 16 16))
		(line (pt 88 96)(pt 88 16))
	)
)
(symbol
	(rect 520 3368 624 3480)
	(text "AND5" (rect 34 -1 71 15)(font "Courier New" (font_size 10)(bold)))
	(text "inst65" (rect 3 101 32 113)(font "Arial" ))
	(port
		(pt 0 56)
		(input)
		(text "IN3" (rect 20 52 37 64)(font "Courier New" (bold)))
		(text "IN3" (rect 20 52 37 64)(font "Courier New" (bold)))
		(line (pt 0 56)(pt 16 56))
	)
	(port
		(pt 0 40)
		(input)
		(text "IN2" (rect 20 36 37 48)(font "Courier New" (bold)))
		(text "IN2" (rect 20 36 37 48)(font "Courier New" (bold)))
		(line (pt 0 40)(pt 16 40))
	)
	(port
		(pt 0 24)
		(input)
		(text "IN1" (rect 20 20 37 32)(font "Courier New" (bold)))
		(text "IN1" (rect 20 20 37 32)(font "Courier New" (bold)))
		(line (pt 0 24)(pt 16 24))
	)
	(port
		(pt 0 88)
		(input)
		(text "IN5" (rect 20 84 37 96)(font "Courier New" (bold)))
		(text "IN5" (rect 20 84 37 96)(font "Courier New" (bold)))
		(line (pt 0 88)(pt 16 88))
	)
	(port
		(pt 0 72)
		(input)
		(text "IN4" (rect 20 68 37 80)(font "Courier New" (bold)))
		(text "IN4" (rect 20 68 37 80)(font "Courier New" (bold)))
		(line (pt 0 72)(pt 16 72))
	)
	(port
		(pt 104 56)
		(output)
		(text "OUT" (rect 71 52 88 64)(font "Courier New" (bold)))
		(text "OUT" (rect 69 52 86 64)(font "Courier New" (bold)))
		(line (pt 88 56)(pt 104 56))
	)
	(drawing
		(line (pt 16 96)(pt 88 96))
		(line (pt 16 16)(pt 88 16))
		(line (pt 16 96)(pt 16 16))
		(line (pt 88 96)(pt 88 16))
	)
)
(symbol
	(rect 520 3488 624 3600)
	(text "AND5" (rect 34 -1 71 15)(font "Courier New" (font_size 10)(bold)))
	(text "inst66" (rect 3 101 32 113)(font "Arial" ))
	(port
		(pt 0 56)
		(input)
		(text "IN3" (rect 20 52 37 64)(font "Courier New" (bold)))
		(text "IN3" (rect 20 52 37 64)(font "Courier New" (bold)))
		(line (pt 0 56)(pt 16 56))
	)
	(port
		(pt 0 40)
		(input)
		(text "IN2" (rect 20 36 37 48)(font "Courier New" (bold)))
		(text "IN2" (rect 20 36 37 48)(font "Courier New" (bold)))
		(line (pt 0 40)(pt 16 40))
	)
	(port
		(pt 0 24)
		(input)
		(text "IN1" (rect 20 20 37 32)(font "Courier New" (bold)))
		(text "IN1" (rect 20 20 37 32)(font "Courier New" (bold)))
		(line (pt 0 24)(pt 16 24))
	)
	(port
		(pt 0 88)
		(input)
		(text "IN5" (rect 20 84 37 96)(font "Courier New" (bold)))
		(text "IN5" (rect 20 84 37 96)(font "Courier New" (bold)))
		(line (pt 0 88)(pt 16 88))
	)
	(port
		(pt 0 72)
		(input)
		(text "IN4" (rect 20 68 37 80)(font "Courier New" (bold)))
		(text "IN4" (rect 20 68 37 80)(font "Courier New" (bold)))
		(line (pt 0 72)(pt 16 72))
	)
	(port
		(pt 104 56)
		(output)
		(text "OUT" (rect 71 52 88 64)(font "Courier New" (bold)))
		(text "OUT" (rect 69 52 86 64)(font "Courier New" (bold)))
		(line (pt 88 56)(pt 104 56))
	)
	(drawing
		(line (pt 16 96)(pt 88 96))
		(line (pt 16 16)(pt 88 16))
		(line (pt 16 96)(pt 16 16))
		(line (pt 88 96)(pt 88 16))
	)
)
(symbol
	(rect 520 3608 624 3720)
	(text "AND5" (rect 34 -1 71 15)(font "Courier New" (font_size 10)(bold)))
	(text "inst67" (rect 3 101 32 113)(font "Arial" ))
	(port
		(pt 0 56)
		(input)
		(text "IN3" (rect 20 52 37 64)(font "Courier New" (bold)))
		(text "IN3" (rect 20 52 37 64)(font "Courier New" (bold)))
		(line (pt 0 56)(pt 16 56))
	)
	(port
		(pt 0 40)
		(input)
		(text "IN2" (rect 20 36 37 48)(font "Courier New" (bold)))
		(text "IN2" (rect 20 36 37 48)(font "Courier New" (bold)))
		(line (pt 0 40)(pt 16 40))
	)
	(port
		(pt 0 24)
		(input)
		(text "IN1" (rect 20 20 37 32)(font "Courier New" (bold)))
		(text "IN1" (rect 20 20 37 32)(font "Courier New" (bold)))
		(line (pt 0 24)(pt 16 24))
	)
	(port
		(pt 0 88)
		(input)
		(text "IN5" (rect 20 84 37 96)(font "Courier New" (bold)))
		(text "IN5" (rect 20 84 37 96)(font "Courier New" (bold)))
		(line (pt 0 88)(pt 16 88))
	)
	(port
		(pt 0 72)
		(input)
		(text "IN4" (rect 20 68 37 80)(font "Courier New" (bold)))
		(text "IN4" (rect 20 68 37 80)(font "Courier New" (bold)))
		(line (pt 0 72)(pt 16 72))
	)
	(port
		(pt 104 56)
		(output)
		(text "OUT" (rect 71 52 88 64)(font "Courier New" (bold)))
		(text "OUT" (rect 69 52 86 64)(font "Courier New" (bold)))
		(line (pt 88 56)(pt 104 56))
	)
	(drawing
		(line (pt 16 96)(pt 88 96))
		(line (pt 16 16)(pt 88 16))
		(line (pt 16 96)(pt 16 16))
		(line (pt 88 96)(pt 88 16))
	)
)
(symbol
	(rect 520 3728 624 3840)
	(text "AND5" (rect 34 -1 71 15)(font "Courier New" (font_size 10)(bold)))
	(text "inst68" (rect 3 101 32 113)(font "Arial" ))
	(port
		(pt 0 56)
		(input)
		(text "IN3" (rect 20 52 37 64)(font "Courier New" (bold)))
		(text "IN3" (rect 20 52 37 64)(font "Courier New" (bold)))
		(line (pt 0 56)(pt 16 56))
	)
	(port
		(pt 0 40)
		(input)
		(text "IN2" (rect 20 36 37 48)(font "Courier New" (bold)))
		(text "IN2" (rect 20 36 37 48)(font "Courier New" (bold)))
		(line (pt 0 40)(pt 16 40))
	)
	(port
		(pt 0 24)
		(input)
		(text "IN1" (rect 20 20 37 32)(font "Courier New" (bold)))
		(text "IN1" (rect 20 20 37 32)(font "Courier New" (bold)))
		(line (pt 0 24)(pt 16 24))
	)
	(port
		(pt 0 88)
		(input)
		(text "IN5" (rect 20 84 37 96)(font "Courier New" (bold)))
		(text "IN5" (rect 20 84 37 96)(font "Courier New" (bold)))
		(line (pt 0 88)(pt 16 88))
	)
	(port
		(pt 0 72)
		(input)
		(text "IN4" (rect 20 68 37 80)(font "Courier New" (bold)))
		(text "IN4" (rect 20 68 37 80)(font "Courier New" (bold)))
		(line (pt 0 72)(pt 16 72))
	)
	(port
		(pt 104 56)
		(output)
		(text "OUT" (rect 71 52 88 64)(font "Courier New" (bold)))
		(text "OUT" (rect 69 52 86 64)(font "Courier New" (bold)))
		(line (pt 88 56)(pt 104 56))
	)
	(drawing
		(line (pt 16 96)(pt 88 96))
		(line (pt 16 16)(pt 88 16))
		(line (pt 16 96)(pt 16 16))
		(line (pt 88 96)(pt 88 16))
	)
)
(connector
	(pt 104 -32)
	(pt 104 -40)
)
(connector
	(pt 104 -40)
	(pt 64 -40)
)
(connector
	(pt 168 -32)
	(pt 168 -40)
)
(connector
	(pt 168 -40)
	(pt 128 -40)
)
(connector
	(pt 232 -32)
	(pt 232 -40)
)
(connector
	(pt 232 -40)
	(pt 192 -40)
)
(connector
	(pt 296 -32)
	(pt 296 -40)
)
(connector
	(pt 296 -40)
	(pt 256 -40)
)
(connector
	(pt 360 -32)
	(pt 360 -40)
)
(connector
	(pt 360 -40)
	(pt 320 -40)
)
(connector
	(pt 520 32)
	(pt 360 32)
)
(connector
	(pt 520 48)
	(pt 296 48)
)
(connector
	(pt 520 80)
	(pt 168 80)
)
(connector
	(pt 520 96)
	(pt 104 96)
)
(connector
	(pt 104 96)
	(pt 104 16)
)
(connector
	(pt 520 216)
	(pt 104 216)
)
(connector
	(pt 104 216)
	(pt 104 96)
)
(connector
	(pt 520 336)
	(pt 104 336)
)
(connector
	(pt 104 336)
	(pt 104 216)
)
(connector
	(pt 520 456)
	(pt 104 456)
)
(connector
	(pt 104 456)
	(pt 104 336)
)
(connector
	(pt 520 576)
	(pt 104 576)
)
(connector
	(pt 104 576)
	(pt 104 456)
)
(connector
	(pt 520 696)
	(pt 104 696)
)
(connector
	(pt 104 576)
	(pt 104 696)
)
(connector
	(pt 520 816)
	(pt 104 816)
)
(connector
	(pt 104 816)
	(pt 104 696)
)
(connector
	(pt 520 936)
	(pt 104 936)
)
(connector
	(pt 104 936)
	(pt 104 816)
)
(connector
	(pt 520 1056)
	(pt 104 1056)
)
(connector
	(pt 104 1056)
	(pt 104 936)
)
(connector
	(pt 520 1176)
	(pt 104 1176)
)
(connector
	(pt 104 1176)
	(pt 104 1056)
)
(connector
	(pt 520 1296)
	(pt 104 1296)
)
(connector
	(pt 104 1176)
	(pt 104 1296)
)
(connector
	(pt 520 1416)
	(pt 104 1416)
)
(connector
	(pt 104 1416)
	(pt 104 1296)
)
(connector
	(pt 520 1536)
	(pt 104 1536)
)
(connector
	(pt 104 1536)
	(pt 104 1416)
)
(connector
	(pt 520 1656)
	(pt 104 1656)
)
(connector
	(pt 104 1656)
	(pt 104 1536)
)
(connector
	(pt 520 1776)
	(pt 104 1776)
)
(connector
	(pt 104 1776)
	(pt 104 1656)
)
(connector
	(pt 520 1896)
	(pt 104 1896)
)
(connector
	(pt 520 2016)
	(pt 64 2016)
)
(connector
	(pt 64 -40)
	(pt 64 2016)
)
(connector
	(pt 520 2136)
	(pt 64 2136)
)
(connector
	(pt 64 2016)
	(pt 64 2136)
)
(connector
	(pt 520 2256)
	(pt 64 2256)
)
(connector
	(pt 64 2136)
	(pt 64 2256)
)
(connector
	(pt 520 2376)
	(pt 64 2376)
)
(connector
	(pt 64 2256)
	(pt 64 2376)
)
(connector
	(pt 520 2496)
	(pt 64 2496)
)
(connector
	(pt 64 2376)
	(pt 64 2496)
)
(connector
	(pt 520 2616)
	(pt 64 2616)
)
(connector
	(pt 64 2496)
	(pt 64 2616)
)
(connector
	(pt 520 2736)
	(pt 64 2736)
)
(connector
	(pt 64 2616)
	(pt 64 2736)
)
(connector
	(pt 520 2856)
	(pt 64 2856)
)
(connector
	(pt 64 2736)
	(pt 64 2856)
)
(connector
	(pt 520 2976)
	(pt 64 2976)
)
(connector
	(pt 64 2856)
	(pt 64 2976)
)
(connector
	(pt 520 3096)
	(pt 64 3096)
)
(connector
	(pt 64 2976)
	(pt 64 3096)
)
(connector
	(pt 520 3216)
	(pt 64 3216)
)
(connector
	(pt 64 3096)
	(pt 64 3216)
)
(connector
	(pt 520 3336)
	(pt 64 3336)
)
(connector
	(pt 64 3216)
	(pt 64 3336)
)
(connector
	(pt 520 3456)
	(pt 64 3456)
)
(connector
	(pt 64 3336)
	(pt 64 3456)
)
(connector
	(pt 520 3576)
	(pt 64 3576)
)
(connector
	(pt 64 3456)
	(pt 64 3576)
)
(connector
	(pt 520 3696)
	(pt 64 3696)
)
(connector
	(pt 64 3576)
	(pt 64 3696)
)
(connector
	(pt 64 3696)
	(pt 64 3816)
)
(connector
	(pt 104 1776)
	(pt 104 1896)
)
(connector
	(pt 168 16)
	(pt 168 80)
)
(connector
	(pt 64 3816)
	(pt 520 3816)
)
(connector
	(pt 520 200)
	(pt 168 200)
)
(connector
	(pt 168 80)
	(pt 168 200)
)
(connector
	(pt 520 320)
	(pt 168 320)
)
(connector
	(pt 168 200)
	(pt 168 320)
)
(connector
	(pt 520 440)
	(pt 168 440)
)
(connector
	(pt 168 320)
	(pt 168 440)
)
(connector
	(pt 520 560)
	(pt 168 560)
)
(connector
	(pt 168 440)
	(pt 168 560)
)
(connector
	(pt 520 680)
	(pt 168 680)
)
(connector
	(pt 168 560)
	(pt 168 680)
)
(connector
	(pt 520 800)
	(pt 168 800)
)
(connector
	(pt 168 680)
	(pt 168 800)
)
(connector
	(pt 520 920)
	(pt 168 920)
)
(connector
	(pt 296 16)
	(pt 296 48)
)
(connector
	(pt 168 800)
	(pt 168 920)
)
(connector
	(pt 128 3800)
	(pt 520 3800)
)
(connector
	(pt 520 3680)
	(pt 128 3680)
)
(connector
	(pt 128 3680)
	(pt 128 3800)
)
(connector
	(pt 128 3560)
	(pt 520 3560)
)
(connector
	(pt 128 3560)
	(pt 128 3680)
)
(connector
	(pt 520 3440)
	(pt 128 3440)
)
(connector
	(pt 128 3440)
	(pt 128 3560)
)
(connector
	(pt 520 3320)
	(pt 128 3320)
)
(connector
	(pt 128 3320)
	(pt 128 3440)
)
(connector
	(pt 520 3200)
	(pt 128 3200)
)
(connector
	(pt 128 3200)
	(pt 128 3320)
)
(connector
	(pt 520 3080)
	(pt 128 3080)
)
(connector
	(pt 128 3080)
	(pt 128 3200)
)
(connector
	(pt 520 2960)
	(pt 128 2960)
)
(connector
	(pt 128 2960)
	(pt 128 3080)
)
(connector
	(pt 520 2840)
	(pt 168 2840)
)
(connector
	(pt 520 2720)
	(pt 168 2720)
)
(connector
	(pt 168 2720)
	(pt 168 2840)
)
(connector
	(pt 520 2600)
	(pt 168 2600)
)
(connector
	(pt 168 2600)
	(pt 168 2720)
)
(connector
	(pt 520 2480)
	(pt 168 2480)
)
(connector
	(pt 168 2480)
	(pt 168 2600)
)
(connector
	(pt 520 2360)
	(pt 168 2360)
)
(connector
	(pt 168 2360)
	(pt 168 2480)
)
(connector
	(pt 520 2240)
	(pt 168 2240)
)
(connector
	(pt 168 2240)
	(pt 168 2360)
)
(connector
	(pt 520 2120)
	(pt 168 2120)
)
(connector
	(pt 168 2120)
	(pt 168 2240)
)
(connector
	(pt 520 2000)
	(pt 168 2000)
)
(connector
	(pt 168 920)
	(pt 168 2000)
)
(connector
	(pt 168 2000)
	(pt 168 2120)
)
(connector
	(pt 520 1880)
	(pt 128 1880)
)
(connector
	(pt 128 1880)
	(pt 128 2960)
)
(connector
	(pt 520 1760)
	(pt 128 1760)
)
(connector
	(pt 128 1760)
	(pt 128 1880)
)
(connector
	(pt 520 1640)
	(pt 128 1640)
)
(connector
	(pt 128 1640)
	(pt 128 1760)
)
(connector
	(pt 520 1520)
	(pt 128 1520)
)
(connector
	(pt 128 1520)
	(pt 128 1640)
)
(connector
	(pt 520 1400)
	(pt 128 1400)
)
(connector
	(pt 128 1400)
	(pt 128 1520)
)
(connector
	(pt 520 1280)
	(pt 128 1280)
)
(connector
	(pt 128 1280)
	(pt 128 1400)
)
(connector
	(pt 520 1160)
	(pt 128 1160)
)
(connector
	(pt 128 1160)
	(pt 128 1280)
)
(connector
	(pt 520 1040)
	(pt 128 1040)
)
(connector
	(pt 128 -40)
	(pt 128 1040)
)
(connector
	(pt 128 1040)
	(pt 128 1160)
)
(connector
	(pt 520 168)
	(pt 296 168)
)
(connector
	(pt 296 48)
	(pt 296 168)
)
(connector
	(pt 520 64)
	(pt 232 64)
)
(connector
	(pt 232 16)
	(pt 232 64)
)
(connector
	(pt 520 184)
	(pt 232 184)
)
(connector
	(pt 232 64)
	(pt 232 184)
)
(connector
	(pt 520 304)
	(pt 232 304)
)
(connector
	(pt 232 184)
	(pt 232 304)
)
(connector
	(pt 520 424)
	(pt 232 424)
)
(connector
	(pt 232 304)
	(pt 232 424)
)
(connector
	(pt 520 544)
	(pt 192 544)
)
(connector
	(pt 192 -40)
	(pt 192 544)
)
(connector
	(pt 520 664)
	(pt 192 664)
)
(connector
	(pt 192 544)
	(pt 192 664)
)
(connector
	(pt 520 784)
	(pt 192 784)
)
(connector
	(pt 192 664)
	(pt 192 784)
)
(connector
	(pt 520 904)
	(pt 192 904)
)
(connector
	(pt 192 784)
	(pt 192 904)
)
(connector
	(pt 520 1024)
	(pt 232 1024)
)
(connector
	(pt 232 424)
	(pt 232 1024)
)
(connector
	(pt 520 1144)
	(pt 232 1144)
)
(connector
	(pt 232 1024)
	(pt 232 1144)
)
(connector
	(pt 520 1264)
	(pt 232 1264)
)
(connector
	(pt 232 1144)
	(pt 232 1264)
)
(connector
	(pt 520 1384)
	(pt 232 1384)
)
(connector
	(pt 232 1264)
	(pt 232 1384)
)
(connector
	(pt 520 1504)
	(pt 192 1504)
)
(connector
	(pt 192 904)
	(pt 192 1504)
)
(connector
	(pt 520 1624)
	(pt 192 1624)
)
(connector
	(pt 192 1504)
	(pt 192 1624)
)
(connector
	(pt 520 1744)
	(pt 192 1744)
)
(connector
	(pt 192 1624)
	(pt 192 1744)
)
(connector
	(pt 520 1864)
	(pt 192 1864)
)
(connector
	(pt 192 1744)
	(pt 192 1864)
)
(connector
	(pt 520 1984)
	(pt 232 1984)
)
(connector
	(pt 232 1384)
	(pt 232 1984)
)
(connector
	(pt 520 2104)
	(pt 232 2104)
)
(connector
	(pt 232 1984)
	(pt 232 2104)
)
(connector
	(pt 520 2224)
	(pt 232 2224)
)
(connector
	(pt 232 2104)
	(pt 232 2224)
)
(connector
	(pt 520 2344)
	(pt 232 2344)
)
(connector
	(pt 232 2224)
	(pt 232 2344)
)
(connector
	(pt 520 2464)
	(pt 192 2464)
)
(connector
	(pt 192 1864)
	(pt 192 2464)
)
(connector
	(pt 520 2584)
	(pt 192 2584)
)
(connector
	(pt 192 2464)
	(pt 192 2584)
)
(connector
	(pt 520 2704)
	(pt 192 2704)
)
(connector
	(pt 192 2584)
	(pt 192 2704)
)
(connector
	(pt 520 2824)
	(pt 192 2824)
)
(connector
	(pt 192 2704)
	(pt 192 2824)
)
(connector
	(pt 520 2944)
	(pt 232 2944)
)
(connector
	(pt 232 2344)
	(pt 232 2944)
)
(connector
	(pt 520 3064)
	(pt 232 3064)
)
(connector
	(pt 232 2944)
	(pt 232 3064)
)
(connector
	(pt 520 3184)
	(pt 232 3184)
)
(connector
	(pt 232 3064)
	(pt 232 3184)
)
(connector
	(pt 520 3304)
	(pt 232 3304)
)
(connector
	(pt 520 3424)
	(pt 192 3424)
)
(connector
	(pt 192 2824)
	(pt 192 3424)
)
(connector
	(pt 520 3544)
	(pt 192 3544)
)
(connector
	(pt 192 3424)
	(pt 192 3544)
)
(connector
	(pt 520 3664)
	(pt 192 3664)
)
(connector
	(pt 192 3544)
	(pt 192 3664)
)
(connector
	(pt 232 3184)
	(pt 232 3304)
)
(connector
	(pt 192 3664)
	(pt 192 3784)
)
(connector
	(pt 192 3784)
	(pt 520 3784)
)
(connector
	(pt 520 288)
	(pt 256 288)
)
(connector
	(pt 256 -40)
	(pt 256 288)
)
(connector
	(pt 520 408)
	(pt 256 408)
)
(connector
	(pt 256 288)
	(pt 256 408)
)
(connector
	(pt 520 528)
	(pt 296 528)
)
(connector
	(pt 296 168)
	(pt 296 528)
)
(connector
	(pt 520 648)
	(pt 296 648)
)
(connector
	(pt 296 528)
	(pt 296 648)
)
(connector
	(pt 520 768)
	(pt 256 768)
)
(connector
	(pt 256 408)
	(pt 256 768)
)
(connector
	(pt 520 888)
	(pt 256 888)
)
(connector
	(pt 256 768)
	(pt 256 888)
)
(connector
	(pt 520 1008)
	(pt 296 1008)
)
(connector
	(pt 296 648)
	(pt 296 1008)
)
(connector
	(pt 520 1128)
	(pt 296 1128)
)
(connector
	(pt 296 1008)
	(pt 296 1128)
)
(connector
	(pt 520 1248)
	(pt 256 1248)
)
(connector
	(pt 256 888)
	(pt 256 1248)
)
(connector
	(pt 520 1368)
	(pt 256 1368)
)
(connector
	(pt 256 1248)
	(pt 256 1368)
)
(connector
	(pt 520 1488)
	(pt 296 1488)
)
(connector
	(pt 296 1128)
	(pt 296 1488)
)
(connector
	(pt 520 1608)
	(pt 296 1608)
)
(connector
	(pt 296 1488)
	(pt 296 1608)
)
(connector
	(pt 520 1728)
	(pt 256 1728)
)
(connector
	(pt 256 1368)
	(pt 256 1728)
)
(connector
	(pt 520 1848)
	(pt 256 1848)
)
(connector
	(pt 256 1728)
	(pt 256 1848)
)
(connector
	(pt 520 1968)
	(pt 296 1968)
)
(connector
	(pt 296 1608)
	(pt 296 1968)
)
(connector
	(pt 520 2088)
	(pt 296 2088)
)
(connector
	(pt 296 1968)
	(pt 296 2088)
)
(connector
	(pt 520 2208)
	(pt 256 2208)
)
(connector
	(pt 256 1848)
	(pt 256 2208)
)
(connector
	(pt 520 2328)
	(pt 256 2328)
)
(connector
	(pt 256 2208)
	(pt 256 2328)
)
(connector
	(pt 520 2448)
	(pt 296 2448)
)
(connector
	(pt 296 2088)
	(pt 296 2448)
)
(connector
	(pt 520 2568)
	(pt 296 2568)
)
(connector
	(pt 296 2448)
	(pt 296 2568)
)
(connector
	(pt 520 2688)
	(pt 256 2688)
)
(connector
	(pt 256 2328)
	(pt 256 2688)
)
(connector
	(pt 520 2808)
	(pt 256 2808)
)
(connector
	(pt 256 2688)
	(pt 256 2808)
)
(connector
	(pt 520 2928)
	(pt 296 2928)
)
(connector
	(pt 296 2568)
	(pt 296 2928)
)
(connector
	(pt 520 3048)
	(pt 296 3048)
)
(connector
	(pt 296 2928)
	(pt 296 3048)
)
(connector
	(pt 520 3168)
	(pt 256 3168)
)
(connector
	(pt 256 2808)
	(pt 256 3168)
)
(connector
	(pt 520 3288)
	(pt 256 3288)
)
(connector
	(pt 256 3168)
	(pt 256 3288)
)
(connector
	(pt 520 3408)
	(pt 296 3408)
)
(connector
	(pt 296 3048)
	(pt 296 3408)
)
(connector
	(pt 520 3528)
	(pt 296 3528)
)
(connector
	(pt 520 3648)
	(pt 256 3648)
)
(connector
	(pt 256 3288)
	(pt 256 3648)
)
(connector
	(pt 360 16)
	(pt 360 32)
)
(connector
	(pt 296 3408)
	(pt 296 3528)
)
(connector
	(pt 256 3768)
	(pt 520 3768)
)
(connector
	(pt 256 3648)
	(pt 256 3768)
)
(connector
	(pt 520 152)
	(pt 320 152)
)
(connector
	(pt 320 -40)
	(pt 320 152)
)
(connector
	(pt 520 272)
	(pt 360 272)
)
(connector
	(pt 360 32)
	(pt 360 272)
)
(connector
	(pt 520 392)
	(pt 320 392)
)
(connector
	(pt 320 152)
	(pt 320 392)
)
(connector
	(pt 520 512)
	(pt 360 512)
)
(connector
	(pt 360 272)
	(pt 360 512)
)
(connector
	(pt 520 632)
	(pt 320 632)
)
(connector
	(pt 320 392)
	(pt 320 632)
)
(connector
	(pt 520 752)
	(pt 360 752)
)
(connector
	(pt 360 512)
	(pt 360 752)
)
(connector
	(pt 520 872)
	(pt 320 872)
)
(connector
	(pt 320 632)
	(pt 320 872)
)
(connector
	(pt 520 992)
	(pt 360 992)
)
(connector
	(pt 360 752)
	(pt 360 992)
)
(connector
	(pt 520 1112)
	(pt 320 1112)
)
(connector
	(pt 320 872)
	(pt 320 1112)
)
(connector
	(pt 360 1232)
	(pt 520 1232)
)
(connector
	(pt 360 992)
	(pt 360 1232)
)
(connector
	(pt 520 1352)
	(pt 320 1352)
)
(connector
	(pt 320 1112)
	(pt 320 1352)
)
(connector
	(pt 520 1472)
	(pt 360 1472)
)
(connector
	(pt 360 1232)
	(pt 360 1472)
)
(connector
	(pt 520 1592)
	(pt 320 1592)
)
(connector
	(pt 320 1352)
	(pt 320 1592)
)
(connector
	(pt 520 1712)
	(pt 360 1712)
)
(connector
	(pt 360 1472)
	(pt 360 1712)
)
(connector
	(pt 520 1832)
	(pt 320 1832)
)
(connector
	(pt 320 1592)
	(pt 320 1832)
)
(connector
	(pt 520 1952)
	(pt 360 1952)
)
(connector
	(pt 360 1712)
	(pt 360 1952)
)
(connector
	(pt 520 2072)
	(pt 320 2072)
)
(connector
	(pt 320 1832)
	(pt 320 2072)
)
(connector
	(pt 520 2192)
	(pt 360 2192)
)
(connector
	(pt 360 1952)
	(pt 360 2192)
)
(connector
	(pt 520 2312)
	(pt 320 2312)
)
(connector
	(pt 320 2072)
	(pt 320 2312)
)
(connector
	(pt 520 2432)
	(pt 360 2432)
)
(connector
	(pt 360 2192)
	(pt 360 2432)
)
(connector
	(pt 520 2552)
	(pt 320 2552)
)
(connector
	(pt 320 2312)
	(pt 320 2552)
)
(connector
	(pt 520 2672)
	(pt 360 2672)
)
(connector
	(pt 360 2432)
	(pt 360 2672)
)
(connector
	(pt 520 2792)
	(pt 320 2792)
)
(connector
	(pt 320 2552)
	(pt 320 2792)
)
(connector
	(pt 520 2912)
	(pt 360 2912)
)
(connector
	(pt 360 2672)
	(pt 360 2912)
)
(connector
	(pt 520 3032)
	(pt 320 3032)
)
(connector
	(pt 320 2792)
	(pt 320 3032)
)
(connector
	(pt 520 3152)
	(pt 360 3152)
)
(connector
	(pt 360 2912)
	(pt 360 3152)
)
(connector
	(pt 520 3272)
	(pt 320 3272)
)
(connector
	(pt 320 3032)
	(pt 320 3272)
)
(connector
	(pt 520 3392)
	(pt 360 3392)
)
(connector
	(pt 360 3152)
	(pt 360 3392)
)
(connector
	(pt 520 3512)
	(pt 320 3512)
)
(connector
	(pt 320 3272)
	(pt 320 3512)
)
(connector
	(pt 320 3512)
	(pt 320 3752)
)
(connector
	(pt 520 3632)
	(pt 360 3632)
)
(connector
	(pt 360 3392)
	(pt 360 3632)
)
(connector
	(pt 320 3752)
	(pt 520 3752)
)
(connector
	(pt 128 -112)
	(pt 192 -112)
	(bus)
)
(connector
	(pt 192 -112)
	(pt 256 -112)
	(bus)
)
(connector
	(pt 256 -112)
	(pt 320 -112)
	(bus)
)
(connector
	(text "b[3]" (rect 112 -72 124 -54)(font "Arial" )(vertical))
	(pt 128 -112)
	(pt 128 -40)
)
(connector
	(text "b[2]" (rect 176 -72 188 -54)(font "Arial" )(vertical))
	(pt 192 -112)
	(pt 192 -40)
)
(connector
	(text "b[1]" (rect 240 -72 252 -54)(font "Arial" )(vertical))
	(pt 256 -112)
	(pt 256 -40)
)
(connector
	(text "b[0]" (rect 304 -72 316 -54)(font "Arial" )(vertical))
	(pt 320 -112)
	(pt 320 -40)
)
(connector
	(text "b[4]" (rect 48 -72 60 -54)(font "Arial" )(vertical))
	(pt 64 -112)
	(pt 64 -40)
)
(connector
	(pt 64 -112)
	(pt 128 -112)
	(bus)
)
(connector
	(text "b[4..0]" (rect 24 -128 55 -116)(font "Arial" ))
	(pt 8 -112)
	(pt 64 -112)
	(bus)
)
(connector
	(pt 752 64)
	(pt 752 184)
	(bus)
)
(connector
	(pt 752 184)
	(pt 752 304)
	(bus)
)
(connector
	(pt 752 304)
	(pt 752 424)
	(bus)
)
(connector
	(pt 752 424)
	(pt 752 544)
	(bus)
)
(connector
	(pt 752 544)
	(pt 752 664)
	(bus)
)
(connector
	(pt 752 664)
	(pt 752 784)
	(bus)
)
(connector
	(pt 752 784)
	(pt 752 904)
	(bus)
)
(connector
	(pt 752 904)
	(pt 752 1024)
	(bus)
)
(connector
	(pt 752 1024)
	(pt 752 1144)
	(bus)
)
(connector
	(pt 752 1144)
	(pt 752 1264)
	(bus)
)
(connector
	(pt 752 1264)
	(pt 752 1384)
	(bus)
)
(connector
	(pt 752 1384)
	(pt 752 1504)
	(bus)
)
(connector
	(pt 752 1504)
	(pt 752 1624)
	(bus)
)
(connector
	(pt 752 1624)
	(pt 752 1744)
	(bus)
)
(connector
	(pt 752 1744)
	(pt 752 1864)
	(bus)
)
(connector
	(pt 752 1864)
	(pt 752 1984)
	(bus)
)
(connector
	(pt 752 1984)
	(pt 752 2104)
	(bus)
)
(connector
	(pt 752 2104)
	(pt 752 2224)
	(bus)
)
(connector
	(pt 752 2224)
	(pt 752 2344)
	(bus)
)
(connector
	(pt 752 2344)
	(pt 752 2464)
	(bus)
)
(connector
	(pt 752 2464)
	(pt 752 2584)
	(bus)
)
(connector
	(pt 752 2584)
	(pt 752 2704)
	(bus)
)
(connector
	(pt 752 2704)
	(pt 752 2824)
	(bus)
)
(connector
	(pt 752 2824)
	(pt 752 2944)
	(bus)
)
(connector
	(pt 752 2944)
	(pt 752 3064)
	(bus)
)
(connector
	(pt 752 3064)
	(pt 752 3184)
	(bus)
)
(connector
	(pt 752 3184)
	(pt 752 3304)
	(bus)
)
(connector
	(pt 752 3304)
	(pt 752 3424)
	(bus)
)
(connector
	(pt 752 3424)
	(pt 752 3544)
	(bus)
)
(connector
	(pt 752 3544)
	(pt 752 3664)
	(bus)
)
(connector
	(pt 752 3664)
	(pt 752 3784)
	(bus)
)
(connector
	(text "out[31..0]" (rect 783 3768 830 3780)(font "Arial" ))
	(pt 752 3784)
	(pt 840 3784)
	(bus)
)
(connector
	(text "out[31]" (rect 657 3768 691 3780)(font "Arial" ))
	(pt 624 3784)
	(pt 752 3784)
)
(connector
	(text "out[30]" (rect 658 3648 692 3660)(font "Arial" ))
	(pt 624 3664)
	(pt 752 3664)
)
(connector
	(text "out[29]" (rect 652 3528 686 3540)(font "Arial" ))
	(pt 624 3544)
	(pt 752 3544)
)
(connector
	(text "out[28]" (rect 657 3408 691 3420)(font "Arial" ))
	(pt 624 3424)
	(pt 752 3424)
)
(connector
	(text "out[27]" (rect 654 3288 688 3300)(font "Arial" ))
	(pt 624 3304)
	(pt 752 3304)
)
(connector
	(text "out[26]" (rect 658 3168 692 3180)(font "Arial" ))
	(pt 624 3184)
	(pt 752 3184)
)
(connector
	(text "out[25]" (rect 656 3048 690 3060)(font "Arial" ))
	(pt 624 3064)
	(pt 752 3064)
)
(connector
	(text "out[24]" (rect 659 2928 693 2940)(font "Arial" ))
	(pt 624 2944)
	(pt 752 2944)
)
(connector
	(text "out[23]" (rect 656 2808 690 2820)(font "Arial" ))
	(pt 624 2824)
	(pt 752 2824)
)
(connector
	(text "out[22]" (rect 655 2688 689 2700)(font "Arial" ))
	(pt 624 2704)
	(pt 752 2704)
)
(connector
	(text "out[21]" (rect 662 2568 696 2580)(font "Arial" ))
	(pt 624 2584)
	(pt 752 2584)
)
(connector
	(text "out[20]" (rect 657 2448 691 2460)(font "Arial" ))
	(pt 624 2464)
	(pt 752 2464)
)
(connector
	(text "out[19]" (rect 662 2328 696 2340)(font "Arial" ))
	(pt 624 2344)
	(pt 752 2344)
)
(connector
	(text "out[18]" (rect 659 2208 693 2220)(font "Arial" ))
	(pt 624 2224)
	(pt 752 2224)
)
(connector
	(text "out[17]" (rect 662 2088 696 2100)(font "Arial" ))
	(pt 624 2104)
	(pt 752 2104)
)
(connector
	(text "out[16]" (rect 661 1968 695 1980)(font "Arial" ))
	(pt 624 1984)
	(pt 752 1984)
)
(connector
	(text "out[15]" (rect 657 1848 691 1860)(font "Arial" ))
	(pt 624 1864)
	(pt 752 1864)
)
(connector
	(text "out[14]" (rect 657 1728 691 1740)(font "Arial" ))
	(pt 624 1744)
	(pt 752 1744)
)
(connector
	(text "out[13]" (rect 659 1608 693 1620)(font "Arial" ))
	(pt 624 1624)
	(pt 752 1624)
)
(connector
	(text "out[12]" (rect 656 1488 690 1500)(font "Arial" ))
	(pt 624 1504)
	(pt 752 1504)
)
(connector
	(text "out[11]" (rect 666 1368 700 1380)(font "Arial" ))
	(pt 624 1384)
	(pt 752 1384)
)
(connector
	(text "out[10]" (rect 659 1248 693 1260)(font "Arial" ))
	(pt 624 1264)
	(pt 752 1264)
)
(connector
	(text "out[9]" (rect 655 1128 683 1140)(font "Arial" ))
	(pt 624 1144)
	(pt 752 1144)
)
(connector
	(text "out[8]" (rect 657 1008 685 1020)(font "Arial" ))
	(pt 624 1024)
	(pt 752 1024)
)
(connector
	(text "out[7]" (rect 659 888 687 900)(font "Arial" ))
	(pt 624 904)
	(pt 752 904)
)
(connector
	(text "out[6]" (rect 654 768 682 780)(font "Arial" ))
	(pt 624 784)
	(pt 752 784)
)
(connector
	(text "out[5]" (rect 656 648 684 660)(font "Arial" ))
	(pt 624 664)
	(pt 752 664)
)
(connector
	(text "out[4]" (rect 653 528 681 540)(font "Arial" ))
	(pt 624 544)
	(pt 752 544)
)
(connector
	(text "out[3]" (rect 652 408 680 420)(font "Arial" ))
	(pt 624 424)
	(pt 752 424)
)
(connector
	(text "out[2]" (rect 653 288 681 300)(font "Arial" ))
	(pt 624 304)
	(pt 752 304)
)
(connector
	(text "out[1]" (rect 658 168 686 180)(font "Arial" ))
	(pt 624 184)
	(pt 752 184)
)
(connector
	(text "out[0]" (rect 669 48 697 60)(font "Arial" ))
	(pt 624 64)
	(pt 752 64)
)
(junction (pt 64 -40))
(junction (pt 128 -40))
(junction (pt 192 -40))
(junction (pt 256 -40))
(junction (pt 320 -40))
(junction (pt 360 32))
(junction (pt 296 48))
(junction (pt 168 80))
(junction (pt 104 96))
(junction (pt 104 216))
(junction (pt 104 336))
(junction (pt 104 456))
(junction (pt 104 576))
(junction (pt 104 696))
(junction (pt 104 816))
(junction (pt 104 936))
(junction (pt 104 1056))
(junction (pt 104 1176))
(junction (pt 104 1296))
(junction (pt 104 1416))
(junction (pt 104 1536))
(junction (pt 104 1656))
(junction (pt 104 1776))
(junction (pt 64 2016))
(junction (pt 64 2136))
(junction (pt 64 2256))
(junction (pt 64 2376))
(junction (pt 64 2496))
(junction (pt 64 2616))
(junction (pt 64 2736))
(junction (pt 64 2856))
(junction (pt 64 2976))
(junction (pt 64 3096))
(junction (pt 64 3216))
(junction (pt 64 3336))
(junction (pt 64 3456))
(junction (pt 64 3576))
(junction (pt 64 3696))
(junction (pt 168 200))
(junction (pt 168 320))
(junction (pt 168 440))
(junction (pt 168 560))
(junction (pt 168 680))
(junction (pt 168 800))
(junction (pt 168 920))
(junction (pt 128 3680))
(junction (pt 128 3560))
(junction (pt 128 3440))
(junction (pt 128 3320))
(junction (pt 128 3200))
(junction (pt 128 3080))
(junction (pt 128 2960))
(junction (pt 168 2720))
(junction (pt 168 2600))
(junction (pt 168 2480))
(junction (pt 168 2360))
(junction (pt 168 2240))
(junction (pt 168 2120))
(junction (pt 168 2000))
(junction (pt 128 1880))
(junction (pt 128 1760))
(junction (pt 128 1640))
(junction (pt 128 1520))
(junction (pt 128 1400))
(junction (pt 128 1280))
(junction (pt 128 1160))
(junction (pt 128 1040))
(junction (pt 296 168))
(junction (pt 232 64))
(junction (pt 232 184))
(junction (pt 232 304))
(junction (pt 232 424))
(junction (pt 192 544))
(junction (pt 192 664))
(junction (pt 192 784))
(junction (pt 192 904))
(junction (pt 232 1024))
(junction (pt 232 1144))
(junction (pt 232 1264))
(junction (pt 232 1384))
(junction (pt 192 1504))
(junction (pt 192 1624))
(junction (pt 192 1744))
(junction (pt 192 1864))
(junction (pt 232 1984))
(junction (pt 232 2104))
(junction (pt 232 2224))
(junction (pt 232 2344))
(junction (pt 192 2464))
(junction (pt 192 2584))
(junction (pt 192 2704))
(junction (pt 192 2824))
(junction (pt 232 2944))
(junction (pt 232 3064))
(junction (pt 232 3184))
(junction (pt 192 3424))
(junction (pt 192 3544))
(junction (pt 192 3664))
(junction (pt 256 288))
(junction (pt 256 408))
(junction (pt 296 528))
(junction (pt 296 648))
(junction (pt 256 768))
(junction (pt 256 888))
(junction (pt 296 1008))
(junction (pt 296 1128))
(junction (pt 256 1248))
(junction (pt 256 1368))
(junction (pt 296 1488))
(junction (pt 296 1608))
(junction (pt 256 1728))
(junction (pt 256 1848))
(junction (pt 296 1968))
(junction (pt 296 2088))
(junction (pt 256 2208))
(junction (pt 256 2328))
(junction (pt 296 2448))
(junction (pt 296 2568))
(junction (pt 256 2688))
(junction (pt 256 2808))
(junction (pt 296 2928))
(junction (pt 296 3048))
(junction (pt 256 3168))
(junction (pt 256 3288))
(junction (pt 296 3408))
(junction (pt 256 3648))
(junction (pt 320 152))
(junction (pt 360 272))
(junction (pt 320 392))
(junction (pt 360 512))
(junction (pt 320 632))
(junction (pt 360 752))
(junction (pt 320 872))
(junction (pt 360 992))
(junction (pt 320 1112))
(junction (pt 360 1232))
(junction (pt 320 1352))
(junction (pt 360 1472))
(junction (pt 320 1592))
(junction (pt 360 1712))
(junction (pt 320 1832))
(junction (pt 360 1952))
(junction (pt 320 2072))
(junction (pt 360 2192))
(junction (pt 320 2312))
(junction (pt 360 2432))
(junction (pt 320 2552))
(junction (pt 360 2672))
(junction (pt 320 2792))
(junction (pt 360 2912))
(junction (pt 320 3032))
(junction (pt 360 3152))
(junction (pt 320 3272))
(junction (pt 360 3392))
(junction (pt 320 3512))
(junction (pt 64 -112))
(junction (pt 128 -112))
(junction (pt 192 -112))
(junction (pt 256 -112))
(junction (pt 752 184))
(junction (pt 752 304))
(junction (pt 752 424))
(junction (pt 752 544))
(junction (pt 752 664))
(junction (pt 752 784))
(junction (pt 752 904))
(junction (pt 752 1024))
(junction (pt 752 1144))
(junction (pt 752 1264))
(junction (pt 752 1384))
(junction (pt 752 1504))
(junction (pt 752 1624))
(junction (pt 752 1744))
(junction (pt 752 1864))
(junction (pt 752 1984))
(junction (pt 752 2104))
(junction (pt 752 2224))
(junction (pt 752 2344))
(junction (pt 752 2464))
(junction (pt 752 2584))
(junction (pt 752 2704))
(junction (pt 752 2824))
(junction (pt 752 2944))
(junction (pt 752 3064))
(junction (pt 752 3184))
(junction (pt 752 3304))
(junction (pt 752 3424))
(junction (pt 752 3544))
(junction (pt 752 3664))
(junction (pt 752 3784))
