/*
WARNING: Do NOT edit the input and output ports in this file in a text
editor if you plan to continue editing the block that represents it in
the Block Editor! File corruption is VERY likely to occur.
*/
/*
Copyright (C) 1991-2013 Altera Corporation
Your use of Altera Corporation's design tools, logic functions 
and other software and tools, and its AMPP partner logic 
functions, and any output files from any of the foregoing 
(including device programming or simulation files), and any 
associated documentation or information are expressly subject 
to the terms and conditions of the Altera Program License 
Subscription Agreement, Altera MegaCore Function License 
Agreement, or other applicable license agreement, including, 
without limitation, that your use is for the sole purpose of 
programming logic devices manufactured by Altera and sold by 
Altera or its authorized distributors.  Please refer to the 
applicable agreement for further details.
*/
(header "graphic" (version "1.4"))
(pin
	(input)
	(rect 512 384 680 400)
	(text "INPUT" (rect 125 0 153 10)(font "Arial" (font_size 6)))
	(text "clk" (rect 5 0 20 12)(font "Arial" ))
	(pt 168 8)
	(drawing
		(line (pt 84 12)(pt 109 12))
		(line (pt 84 4)(pt 109 4))
		(line (pt 113 8)(pt 168 8))
		(line (pt 84 12)(pt 84 4))
		(line (pt 109 4)(pt 113 8))
		(line (pt 109 12)(pt 113 8))
	)
	(text "VCC" (rect 128 7 148 17)(font "Arial" (font_size 6)))
)
(pin
	(output)
	(rect 744 368 920 384)
	(text "OUTPUT" (rect 1 0 39 10)(font "Arial" (font_size 6)))
	(text "halfclk" (rect 90 0 123 12)(font "Arial" ))
	(pt 0 8)
	(drawing
		(line (pt 0 8)(pt 52 8))
		(line (pt 52 4)(pt 78 4))
		(line (pt 52 12)(pt 78 12))
		(line (pt 52 12)(pt 52 4))
		(line (pt 78 4)(pt 82 8))
		(line (pt 82 8)(pt 78 12))
		(line (pt 78 12)(pt 82 8))
	)
)
(symbol
	(rect 680 352 744 432)
	(text "TFF" (rect 1 0 18 10)(font "Arial" (font_size 6)))
	(text "inst" (rect 3 68 20 80)(font "Arial" ))
	(port
		(pt 32 0)
		(input)
		(text "PRN" (rect 24 13 41 25)(font "Courier New" (bold)))
		(text "PRN" (rect 24 11 41 23)(font "Courier New" (bold)))
		(line (pt 32 4)(pt 32 0))
	)
	(port
		(pt 32 80)
		(input)
		(text "CLRN" (rect 21 59 44 71)(font "Courier New" (bold)))
		(text "CLRN" (rect 21 58 44 70)(font "Courier New" (bold)))
		(line (pt 32 80)(pt 32 76))
	)
	(port
		(pt 0 24)
		(input)
		(text "T" (rect 16 20 21 32)(font "Courier New" (bold)))
		(text "T" (rect 16 20 21 32)(font "Courier New" (bold)))
		(line (pt 0 24)(pt 12 24))
	)
	(port
		(pt 0 40)
		(input)
		(text "CLK" (rect 2 28 19 40)(font "Courier New" (bold))(invisible))
		(text "CLK" (rect 2 28 19 40)(font "Courier New" (bold))(invisible))
		(line (pt 0 40)(pt 12 40))
	)
	(port
		(pt 64 24)
		(output)
		(text "Q" (rect 45 20 50 32)(font "Courier New" (bold)))
		(text "Q" (rect 43 20 48 32)(font "Courier New" (bold)))
		(line (pt 52 24)(pt 64 24))
	)
	(drawing
		(line (pt 12 12)(pt 52 12))
		(line (pt 12 68)(pt 52 68))
		(line (pt 12 68)(pt 12 12))
		(line (pt 52 68)(pt 52 12))
		(line (pt 12 34)(pt 19 41))
		(line (pt 18 41)(pt 12 47))
		(circle (rect 28 4 36 12))
		(circle (rect 28 68 36 76))
	)
)
(symbol
	(rect 624 352 656 368)
	(text "VCC" (rect 7 0 27 10)(font "Arial" (font_size 6)))
	(text "inst3" (rect 3 5 26 17)(font "Arial" )(invisible))
	(port
		(pt 16 16)
		(output)
		(text "1" (rect 19 7 24 19)(font "Courier New" (bold))(invisible))
		(text "1" (rect 19 7 24 19)(font "Courier New" (bold))(invisible))
		(line (pt 16 16)(pt 16 8))
	)
	(drawing
		(line (pt 8 8)(pt 24 8))
	)
)
(connector
	(pt 680 376)
	(pt 640 376)
)
(connector
	(pt 640 376)
	(pt 640 368)
)
