/*
WARNING: Do NOT edit the input and output ports in this file in a text
editor if you plan to continue editing the block that represents it in
the Block Editor! File corruption is VERY likely to occur.
*/
/*
Copyright (C) 1991-2013 Altera Corporation
Your use of Altera Corporation's design tools, logic functions 
and other software and tools, and its AMPP partner logic 
functions, and any output files from any of the foregoing 
(including device programming or simulation files), and any 
associated documentation or information are expressly subject 
to the terms and conditions of the Altera Program License 
Subscription Agreement, Altera MegaCore Function License 
Agreement, or other applicable license agreement, including, 
without limitation, that your use is for the sole purpose of 
programming logic devices manufactured by Altera and sold by 
Altera or its authorized distributors.  Please refer to the 
applicable agreement for further details.
*/
(header "graphic" (version "1.4"))
(pin
	(input)
	(rect 504 280 672 296)
	(text "INPUT" (rect 125 0 153 10)(font "Arial" (font_size 6)))
	(text "BranchIDEX" (rect 5 0 64 12)(font "Arial" ))
	(pt 168 8)
	(drawing
		(line (pt 84 12)(pt 109 12))
		(line (pt 84 4)(pt 109 4))
		(line (pt 113 8)(pt 168 8))
		(line (pt 84 12)(pt 84 4))
		(line (pt 109 4)(pt 113 8))
		(line (pt 109 12)(pt 113 8))
	)
	(text "VCC" (rect 128 7 148 17)(font "Arial" (font_size 6)))
)
(pin
	(input)
	(rect 504 384 672 400)
	(text "INPUT" (rect 125 0 153 10)(font "Arial" (font_size 6)))
	(text "ReadMemIDEX" (rect 5 0 79 12)(font "Arial" ))
	(pt 168 8)
	(drawing
		(line (pt 84 12)(pt 109 12))
		(line (pt 84 4)(pt 109 4))
		(line (pt 113 8)(pt 168 8))
		(line (pt 84 12)(pt 84 4))
		(line (pt 109 4)(pt 113 8))
		(line (pt 109 12)(pt 113 8))
	)
	(text "VCC" (rect 128 7 148 17)(font "Arial" (font_size 6)))
)
(pin
	(input)
	(rect 504 488 672 504)
	(text "INPUT" (rect 125 0 153 10)(font "Arial" (font_size 6)))
	(text "WriteMemIDEX" (rect 5 0 79 12)(font "Arial" ))
	(pt 168 8)
	(drawing
		(line (pt 84 12)(pt 109 12))
		(line (pt 84 4)(pt 109 4))
		(line (pt 113 8)(pt 168 8))
		(line (pt 84 12)(pt 84 4))
		(line (pt 109 4)(pt 113 8))
		(line (pt 109 12)(pt 113 8))
	)
	(text "VCC" (rect 128 7 148 17)(font "Arial" (font_size 6)))
)
(pin
	(input)
	(rect 504 592 672 608)
	(text "INPUT" (rect 125 0 153 10)(font "Arial" (font_size 6)))
	(text "WriteRegIDEX" (rect 5 0 75 12)(font "Arial" ))
	(pt 168 8)
	(drawing
		(line (pt 84 12)(pt 109 12))
		(line (pt 84 4)(pt 109 4))
		(line (pt 113 8)(pt 168 8))
		(line (pt 84 12)(pt 84 4))
		(line (pt 109 4)(pt 113 8))
		(line (pt 109 12)(pt 113 8))
	)
	(text "VCC" (rect 128 7 148 17)(font "Arial" (font_size 6)))
)
(pin
	(input)
	(rect 496 704 672 720)
	(text "INPUT" (rect 133 0 161 10)(font "Arial" (font_size 6)))
	(text "MemtoRegIDEX" (rect 5 0 82 12)(font "Arial" ))
	(pt 176 8)
	(drawing
		(line (pt 92 12)(pt 117 12))
		(line (pt 92 4)(pt 117 4))
		(line (pt 121 8)(pt 176 8))
		(line (pt 92 12)(pt 92 4))
		(line (pt 117 4)(pt 121 8))
		(line (pt 117 12)(pt 121 8))
	)
	(text "VCC" (rect 136 7 156 17)(font "Arial" (font_size 6)))
)
(pin
	(input)
	(rect 504 816 672 832)
	(text "INPUT" (rect 125 0 153 10)(font "Arial" (font_size 6)))
	(text "JumpIDEX" (rect 5 0 56 12)(font "Arial" ))
	(pt 168 8)
	(drawing
		(line (pt 84 12)(pt 109 12))
		(line (pt 84 4)(pt 109 4))
		(line (pt 113 8)(pt 168 8))
		(line (pt 84 12)(pt 84 4))
		(line (pt 109 4)(pt 113 8))
		(line (pt 109 12)(pt 113 8))
	)
	(text "VCC" (rect 128 7 148 17)(font "Arial" (font_size 6)))
)
(pin
	(input)
	(rect 504 920 672 936)
	(text "INPUT" (rect 125 0 153 10)(font "Arial" (font_size 6)))
	(text "BneIDEX" (rect 5 0 49 12)(font "Arial" ))
	(pt 168 8)
	(drawing
		(line (pt 84 12)(pt 109 12))
		(line (pt 84 4)(pt 109 4))
		(line (pt 113 8)(pt 168 8))
		(line (pt 84 12)(pt 84 4))
		(line (pt 109 4)(pt 113 8))
		(line (pt 109 12)(pt 113 8))
	)
	(text "VCC" (rect 128 7 148 17)(font "Arial" (font_size 6)))
)
(pin
	(input)
	(rect 504 1024 672 1040)
	(text "INPUT" (rect 125 0 153 10)(font "Arial" (font_size 6)))
	(text "BgezIDEX" (rect 5 0 54 12)(font "Arial" ))
	(pt 168 8)
	(drawing
		(line (pt 84 12)(pt 109 12))
		(line (pt 84 4)(pt 109 4))
		(line (pt 113 8)(pt 168 8))
		(line (pt 84 12)(pt 84 4))
		(line (pt 109 4)(pt 113 8))
		(line (pt 109 12)(pt 113 8))
	)
	(text "VCC" (rect 128 7 148 17)(font "Arial" (font_size 6)))
)
(pin
	(input)
	(rect 504 1128 672 1144)
	(text "INPUT" (rect 125 0 153 10)(font "Arial" (font_size 6)))
	(text "JalIDEX" (rect 5 0 44 12)(font "Arial" ))
	(pt 168 8)
	(drawing
		(line (pt 84 12)(pt 109 12))
		(line (pt 84 4)(pt 109 4))
		(line (pt 113 8)(pt 168 8))
		(line (pt 84 12)(pt 84 4))
		(line (pt 109 4)(pt 113 8))
		(line (pt 109 12)(pt 113 8))
	)
	(text "VCC" (rect 128 7 148 17)(font "Arial" (font_size 6)))
)
(pin
	(input)
	(rect 648 176 816 192)
	(text "INPUT" (rect 125 0 153 10)(font "Arial" (font_size 6)))
	(text "EXFlush" (rect 5 0 46 12)(font "Arial" ))
	(pt 168 8)
	(drawing
		(line (pt 84 12)(pt 109 12))
		(line (pt 84 4)(pt 109 4))
		(line (pt 113 8)(pt 168 8))
		(line (pt 84 12)(pt 84 4))
		(line (pt 109 4)(pt 113 8))
		(line (pt 109 12)(pt 113 8))
	)
	(text "VCC" (rect 128 7 148 17)(font "Arial" (font_size 6)))
)
(pin
	(output)
	(rect 944 272 1120 288)
	(text "OUTPUT" (rect 1 0 39 10)(font "Arial" (font_size 6)))
	(text "BranchIDEXf" (rect 90 0 153 12)(font "Arial" ))
	(pt 0 8)
	(drawing
		(line (pt 0 8)(pt 52 8))
		(line (pt 52 4)(pt 78 4))
		(line (pt 52 12)(pt 78 12))
		(line (pt 52 12)(pt 52 4))
		(line (pt 78 4)(pt 82 8))
		(line (pt 82 8)(pt 78 12))
		(line (pt 78 12)(pt 82 8))
	)
)
(pin
	(output)
	(rect 944 376 1120 392)
	(text "OUTPUT" (rect 1 0 39 10)(font "Arial" (font_size 6)))
	(text "ReadMemIDEXf" (rect 90 0 169 12)(font "Arial" ))
	(pt 0 8)
	(drawing
		(line (pt 0 8)(pt 52 8))
		(line (pt 52 4)(pt 78 4))
		(line (pt 52 12)(pt 78 12))
		(line (pt 52 12)(pt 52 4))
		(line (pt 78 4)(pt 82 8))
		(line (pt 82 8)(pt 78 12))
		(line (pt 78 12)(pt 82 8))
	)
)
(pin
	(output)
	(rect 944 480 1120 496)
	(text "OUTPUT" (rect 1 0 39 10)(font "Arial" (font_size 6)))
	(text "WriteMemIDEXf" (rect 90 0 169 12)(font "Arial" ))
	(pt 0 8)
	(drawing
		(line (pt 0 8)(pt 52 8))
		(line (pt 52 4)(pt 78 4))
		(line (pt 52 12)(pt 78 12))
		(line (pt 52 12)(pt 52 4))
		(line (pt 78 4)(pt 82 8))
		(line (pt 82 8)(pt 78 12))
		(line (pt 78 12)(pt 82 8))
	)
)
(pin
	(output)
	(rect 944 584 1120 600)
	(text "OUTPUT" (rect 1 0 39 10)(font "Arial" (font_size 6)))
	(text "WriteRegIDEXf" (rect 90 0 165 12)(font "Arial" ))
	(pt 0 8)
	(drawing
		(line (pt 0 8)(pt 52 8))
		(line (pt 52 4)(pt 78 4))
		(line (pt 52 12)(pt 78 12))
		(line (pt 52 12)(pt 52 4))
		(line (pt 78 4)(pt 82 8))
		(line (pt 82 8)(pt 78 12))
		(line (pt 78 12)(pt 82 8))
	)
)
(pin
	(output)
	(rect 944 808 1120 824)
	(text "OUTPUT" (rect 1 0 39 10)(font "Arial" (font_size 6)))
	(text "JumpIDEXf" (rect 90 0 146 12)(font "Arial" ))
	(pt 0 8)
	(drawing
		(line (pt 0 8)(pt 52 8))
		(line (pt 52 4)(pt 78 4))
		(line (pt 52 12)(pt 78 12))
		(line (pt 52 12)(pt 52 4))
		(line (pt 78 4)(pt 82 8))
		(line (pt 82 8)(pt 78 12))
		(line (pt 78 12)(pt 82 8))
	)
)
(pin
	(output)
	(rect 944 912 1120 928)
	(text "OUTPUT" (rect 1 0 39 10)(font "Arial" (font_size 6)))
	(text "BneIDEXf" (rect 90 0 138 12)(font "Arial" ))
	(pt 0 8)
	(drawing
		(line (pt 0 8)(pt 52 8))
		(line (pt 52 4)(pt 78 4))
		(line (pt 52 12)(pt 78 12))
		(line (pt 52 12)(pt 52 4))
		(line (pt 78 4)(pt 82 8))
		(line (pt 82 8)(pt 78 12))
		(line (pt 78 12)(pt 82 8))
	)
)
(pin
	(output)
	(rect 944 1016 1120 1032)
	(text "OUTPUT" (rect 1 0 39 10)(font "Arial" (font_size 6)))
	(text "BgezIDEXf" (rect 90 0 143 12)(font "Arial" ))
	(pt 0 8)
	(drawing
		(line (pt 0 8)(pt 52 8))
		(line (pt 52 4)(pt 78 4))
		(line (pt 52 12)(pt 78 12))
		(line (pt 52 12)(pt 52 4))
		(line (pt 78 4)(pt 82 8))
		(line (pt 82 8)(pt 78 12))
		(line (pt 78 12)(pt 82 8))
	)
)
(pin
	(output)
	(rect 944 1120 1120 1136)
	(text "OUTPUT" (rect 1 0 39 10)(font "Arial" (font_size 6)))
	(text "JalIDEXf" (rect 90 0 133 12)(font "Arial" ))
	(pt 0 8)
	(drawing
		(line (pt 0 8)(pt 52 8))
		(line (pt 52 4)(pt 78 4))
		(line (pt 52 12)(pt 78 12))
		(line (pt 52 12)(pt 52 4))
		(line (pt 78 4)(pt 82 8))
		(line (pt 82 8)(pt 78 12))
		(line (pt 78 12)(pt 82 8))
	)
)
(pin
	(output)
	(rect 944 696 1122 712)
	(text "OUTPUT" (rect 1 0 39 10)(font "Arial" (font_size 6)))
	(text "MemtoRegIDEXf" (rect 90 0 172 12)(font "Arial" ))
	(pt 0 8)
	(drawing
		(line (pt 0 8)(pt 52 8))
		(line (pt 52 4)(pt 78 4))
		(line (pt 52 12)(pt 78 12))
		(line (pt 52 12)(pt 52 4))
		(line (pt 78 4)(pt 82 8))
		(line (pt 82 8)(pt 78 12))
		(line (pt 78 12)(pt 82 8))
	)
)
(symbol
	(rect 728 232 808 312)
	(text "muxlpm2d" (rect 5 0 75 16)(font "Arial" (font_size 10)))
	(text "inst" (rect 8 64 25 76)(font "Arial" ))
	(port
		(pt 0 40)
		(input)
		(text "data1" (rect 0 0 31 14)(font "Arial" (font_size 8)))
		(text "data1" (rect 4 24 35 38)(font "Arial" (font_size 8)))
		(line (pt 0 40)(pt 32 40))
	)
	(port
		(pt 0 56)
		(input)
		(text "data0" (rect 0 0 31 14)(font "Arial" (font_size 8)))
		(text "data0" (rect 4 40 35 54)(font "Arial" (font_size 8)))
		(line (pt 0 56)(pt 32 56))
	)
	(port
		(pt 40 80)
		(input)
		(text "sel" (rect 0 0 14 16)(font "Arial" (font_size 8))(vertical))
		(text "sel" (rect 32 48 46 64)(font "Arial" (font_size 8))(vertical))
		(line (pt 40 80)(pt 40 68))
	)
	(port
		(pt 80 48)
		(output)
		(text "result" (rect 0 0 31 14)(font "Arial" (font_size 8)))
		(text "result" (rect 45 32 76 46)(font "Arial" (font_size 8)))
		(line (pt 80 48)(pt 48 48))
	)
	(drawing
		(line (pt 32 24)(pt 32 72))
		(line (pt 32 24)(pt 48 32))
		(line (pt 32 72)(pt 48 64))
		(line (pt 48 32)(pt 48 64))
		(line (pt 0 0)(pt 82 0))
		(line (pt 82 0)(pt 82 82))
		(line (pt 0 82)(pt 82 82))
		(line (pt 0 0)(pt 0 82))
		(line (pt 0 0)(pt 0 0))
		(line (pt 0 0)(pt 0 0))
		(line (pt 0 0)(pt 0 0))
		(line (pt 0 0)(pt 0 0))
	)
)
(symbol
	(rect 728 336 808 416)
	(text "muxlpm2d" (rect 5 0 75 16)(font "Arial" (font_size 10)))
	(text "inst1" (rect 8 64 31 76)(font "Arial" ))
	(port
		(pt 0 40)
		(input)
		(text "data1" (rect 0 0 31 14)(font "Arial" (font_size 8)))
		(text "data1" (rect 4 24 35 38)(font "Arial" (font_size 8)))
		(line (pt 0 40)(pt 32 40))
	)
	(port
		(pt 0 56)
		(input)
		(text "data0" (rect 0 0 31 14)(font "Arial" (font_size 8)))
		(text "data0" (rect 4 40 35 54)(font "Arial" (font_size 8)))
		(line (pt 0 56)(pt 32 56))
	)
	(port
		(pt 40 80)
		(input)
		(text "sel" (rect 0 0 14 16)(font "Arial" (font_size 8))(vertical))
		(text "sel" (rect 32 48 46 64)(font "Arial" (font_size 8))(vertical))
		(line (pt 40 80)(pt 40 68))
	)
	(port
		(pt 80 48)
		(output)
		(text "result" (rect 0 0 31 14)(font "Arial" (font_size 8)))
		(text "result" (rect 45 32 76 46)(font "Arial" (font_size 8)))
		(line (pt 80 48)(pt 48 48))
	)
	(drawing
		(line (pt 32 24)(pt 32 72))
		(line (pt 32 24)(pt 48 32))
		(line (pt 32 72)(pt 48 64))
		(line (pt 48 32)(pt 48 64))
		(line (pt 0 0)(pt 82 0))
		(line (pt 82 0)(pt 82 82))
		(line (pt 0 82)(pt 82 82))
		(line (pt 0 0)(pt 0 82))
		(line (pt 0 0)(pt 0 0))
		(line (pt 0 0)(pt 0 0))
		(line (pt 0 0)(pt 0 0))
		(line (pt 0 0)(pt 0 0))
	)
)
(symbol
	(rect 728 440 808 520)
	(text "muxlpm2d" (rect 5 0 75 16)(font "Arial" (font_size 10)))
	(text "inst2" (rect 8 64 31 76)(font "Arial" ))
	(port
		(pt 0 40)
		(input)
		(text "data1" (rect 0 0 31 14)(font "Arial" (font_size 8)))
		(text "data1" (rect 4 24 35 38)(font "Arial" (font_size 8)))
		(line (pt 0 40)(pt 32 40))
	)
	(port
		(pt 0 56)
		(input)
		(text "data0" (rect 0 0 31 14)(font "Arial" (font_size 8)))
		(text "data0" (rect 4 40 35 54)(font "Arial" (font_size 8)))
		(line (pt 0 56)(pt 32 56))
	)
	(port
		(pt 40 80)
		(input)
		(text "sel" (rect 0 0 14 16)(font "Arial" (font_size 8))(vertical))
		(text "sel" (rect 32 48 46 64)(font "Arial" (font_size 8))(vertical))
		(line (pt 40 80)(pt 40 68))
	)
	(port
		(pt 80 48)
		(output)
		(text "result" (rect 0 0 31 14)(font "Arial" (font_size 8)))
		(text "result" (rect 45 32 76 46)(font "Arial" (font_size 8)))
		(line (pt 80 48)(pt 48 48))
	)
	(drawing
		(line (pt 32 24)(pt 32 72))
		(line (pt 32 24)(pt 48 32))
		(line (pt 32 72)(pt 48 64))
		(line (pt 48 32)(pt 48 64))
		(line (pt 0 0)(pt 82 0))
		(line (pt 82 0)(pt 82 82))
		(line (pt 0 82)(pt 82 82))
		(line (pt 0 0)(pt 0 82))
		(line (pt 0 0)(pt 0 0))
		(line (pt 0 0)(pt 0 0))
		(line (pt 0 0)(pt 0 0))
		(line (pt 0 0)(pt 0 0))
	)
)
(symbol
	(rect 728 544 808 624)
	(text "muxlpm2d" (rect 5 0 75 16)(font "Arial" (font_size 10)))
	(text "inst3" (rect 8 64 31 76)(font "Arial" ))
	(port
		(pt 0 40)
		(input)
		(text "data1" (rect 0 0 31 14)(font "Arial" (font_size 8)))
		(text "data1" (rect 4 24 35 38)(font "Arial" (font_size 8)))
		(line (pt 0 40)(pt 32 40))
	)
	(port
		(pt 0 56)
		(input)
		(text "data0" (rect 0 0 31 14)(font "Arial" (font_size 8)))
		(text "data0" (rect 4 40 35 54)(font "Arial" (font_size 8)))
		(line (pt 0 56)(pt 32 56))
	)
	(port
		(pt 40 80)
		(input)
		(text "sel" (rect 0 0 14 16)(font "Arial" (font_size 8))(vertical))
		(text "sel" (rect 32 48 46 64)(font "Arial" (font_size 8))(vertical))
		(line (pt 40 80)(pt 40 68))
	)
	(port
		(pt 80 48)
		(output)
		(text "result" (rect 0 0 31 14)(font "Arial" (font_size 8)))
		(text "result" (rect 45 32 76 46)(font "Arial" (font_size 8)))
		(line (pt 80 48)(pt 48 48))
	)
	(drawing
		(line (pt 32 24)(pt 32 72))
		(line (pt 32 24)(pt 48 32))
		(line (pt 32 72)(pt 48 64))
		(line (pt 48 32)(pt 48 64))
		(line (pt 0 0)(pt 82 0))
		(line (pt 82 0)(pt 82 82))
		(line (pt 0 82)(pt 82 82))
		(line (pt 0 0)(pt 0 82))
		(line (pt 0 0)(pt 0 0))
		(line (pt 0 0)(pt 0 0))
		(line (pt 0 0)(pt 0 0))
		(line (pt 0 0)(pt 0 0))
	)
)
(symbol
	(rect 728 768 808 848)
	(text "muxlpm2d" (rect 5 0 75 16)(font "Arial" (font_size 10)))
	(text "inst4" (rect 8 64 31 76)(font "Arial" ))
	(port
		(pt 0 40)
		(input)
		(text "data1" (rect 0 0 31 14)(font "Arial" (font_size 8)))
		(text "data1" (rect 4 24 35 38)(font "Arial" (font_size 8)))
		(line (pt 0 40)(pt 32 40))
	)
	(port
		(pt 0 56)
		(input)
		(text "data0" (rect 0 0 31 14)(font "Arial" (font_size 8)))
		(text "data0" (rect 4 40 35 54)(font "Arial" (font_size 8)))
		(line (pt 0 56)(pt 32 56))
	)
	(port
		(pt 40 80)
		(input)
		(text "sel" (rect 0 0 14 16)(font "Arial" (font_size 8))(vertical))
		(text "sel" (rect 32 48 46 64)(font "Arial" (font_size 8))(vertical))
		(line (pt 40 80)(pt 40 68))
	)
	(port
		(pt 80 48)
		(output)
		(text "result" (rect 0 0 31 14)(font "Arial" (font_size 8)))
		(text "result" (rect 45 32 76 46)(font "Arial" (font_size 8)))
		(line (pt 80 48)(pt 48 48))
	)
	(drawing
		(line (pt 32 24)(pt 32 72))
		(line (pt 32 24)(pt 48 32))
		(line (pt 32 72)(pt 48 64))
		(line (pt 48 32)(pt 48 64))
		(line (pt 0 0)(pt 82 0))
		(line (pt 82 0)(pt 82 82))
		(line (pt 0 82)(pt 82 82))
		(line (pt 0 0)(pt 0 82))
		(line (pt 0 0)(pt 0 0))
		(line (pt 0 0)(pt 0 0))
		(line (pt 0 0)(pt 0 0))
		(line (pt 0 0)(pt 0 0))
	)
)
(symbol
	(rect 728 872 808 952)
	(text "muxlpm2d" (rect 5 0 75 16)(font "Arial" (font_size 10)))
	(text "inst5" (rect 8 64 31 76)(font "Arial" ))
	(port
		(pt 0 40)
		(input)
		(text "data1" (rect 0 0 31 14)(font "Arial" (font_size 8)))
		(text "data1" (rect 4 24 35 38)(font "Arial" (font_size 8)))
		(line (pt 0 40)(pt 32 40))
	)
	(port
		(pt 0 56)
		(input)
		(text "data0" (rect 0 0 31 14)(font "Arial" (font_size 8)))
		(text "data0" (rect 4 40 35 54)(font "Arial" (font_size 8)))
		(line (pt 0 56)(pt 32 56))
	)
	(port
		(pt 40 80)
		(input)
		(text "sel" (rect 0 0 14 16)(font "Arial" (font_size 8))(vertical))
		(text "sel" (rect 32 48 46 64)(font "Arial" (font_size 8))(vertical))
		(line (pt 40 80)(pt 40 68))
	)
	(port
		(pt 80 48)
		(output)
		(text "result" (rect 0 0 31 14)(font "Arial" (font_size 8)))
		(text "result" (rect 45 32 76 46)(font "Arial" (font_size 8)))
		(line (pt 80 48)(pt 48 48))
	)
	(drawing
		(line (pt 32 24)(pt 32 72))
		(line (pt 32 24)(pt 48 32))
		(line (pt 32 72)(pt 48 64))
		(line (pt 48 32)(pt 48 64))
		(line (pt 0 0)(pt 82 0))
		(line (pt 82 0)(pt 82 82))
		(line (pt 0 82)(pt 82 82))
		(line (pt 0 0)(pt 0 82))
		(line (pt 0 0)(pt 0 0))
		(line (pt 0 0)(pt 0 0))
		(line (pt 0 0)(pt 0 0))
		(line (pt 0 0)(pt 0 0))
	)
)
(symbol
	(rect 728 976 808 1056)
	(text "muxlpm2d" (rect 5 0 75 16)(font "Arial" (font_size 10)))
	(text "inst6" (rect 8 64 31 76)(font "Arial" ))
	(port
		(pt 0 40)
		(input)
		(text "data1" (rect 0 0 31 14)(font "Arial" (font_size 8)))
		(text "data1" (rect 4 24 35 38)(font "Arial" (font_size 8)))
		(line (pt 0 40)(pt 32 40))
	)
	(port
		(pt 0 56)
		(input)
		(text "data0" (rect 0 0 31 14)(font "Arial" (font_size 8)))
		(text "data0" (rect 4 40 35 54)(font "Arial" (font_size 8)))
		(line (pt 0 56)(pt 32 56))
	)
	(port
		(pt 40 80)
		(input)
		(text "sel" (rect 0 0 14 16)(font "Arial" (font_size 8))(vertical))
		(text "sel" (rect 32 48 46 64)(font "Arial" (font_size 8))(vertical))
		(line (pt 40 80)(pt 40 68))
	)
	(port
		(pt 80 48)
		(output)
		(text "result" (rect 0 0 31 14)(font "Arial" (font_size 8)))
		(text "result" (rect 45 32 76 46)(font "Arial" (font_size 8)))
		(line (pt 80 48)(pt 48 48))
	)
	(drawing
		(line (pt 32 24)(pt 32 72))
		(line (pt 32 24)(pt 48 32))
		(line (pt 32 72)(pt 48 64))
		(line (pt 48 32)(pt 48 64))
		(line (pt 0 0)(pt 82 0))
		(line (pt 82 0)(pt 82 82))
		(line (pt 0 82)(pt 82 82))
		(line (pt 0 0)(pt 0 82))
		(line (pt 0 0)(pt 0 0))
		(line (pt 0 0)(pt 0 0))
		(line (pt 0 0)(pt 0 0))
		(line (pt 0 0)(pt 0 0))
	)
)
(symbol
	(rect 728 1080 808 1160)
	(text "muxlpm2d" (rect 5 0 75 16)(font "Arial" (font_size 10)))
	(text "inst7" (rect 8 64 31 76)(font "Arial" ))
	(port
		(pt 0 40)
		(input)
		(text "data1" (rect 0 0 31 14)(font "Arial" (font_size 8)))
		(text "data1" (rect 4 24 35 38)(font "Arial" (font_size 8)))
		(line (pt 0 40)(pt 32 40))
	)
	(port
		(pt 0 56)
		(input)
		(text "data0" (rect 0 0 31 14)(font "Arial" (font_size 8)))
		(text "data0" (rect 4 40 35 54)(font "Arial" (font_size 8)))
		(line (pt 0 56)(pt 32 56))
	)
	(port
		(pt 40 80)
		(input)
		(text "sel" (rect 0 0 14 16)(font "Arial" (font_size 8))(vertical))
		(text "sel" (rect 32 48 46 64)(font "Arial" (font_size 8))(vertical))
		(line (pt 40 80)(pt 40 68))
	)
	(port
		(pt 80 48)
		(output)
		(text "result" (rect 0 0 31 14)(font "Arial" (font_size 8)))
		(text "result" (rect 45 32 76 46)(font "Arial" (font_size 8)))
		(line (pt 80 48)(pt 48 48))
	)
	(drawing
		(line (pt 32 24)(pt 32 72))
		(line (pt 32 24)(pt 48 32))
		(line (pt 32 72)(pt 48 64))
		(line (pt 48 32)(pt 48 64))
		(line (pt 0 0)(pt 82 0))
		(line (pt 82 0)(pt 82 82))
		(line (pt 0 82)(pt 82 82))
		(line (pt 0 0)(pt 0 82))
		(line (pt 0 0)(pt 0 0))
		(line (pt 0 0)(pt 0 0))
		(line (pt 0 0)(pt 0 0))
		(line (pt 0 0)(pt 0 0))
	)
)
(symbol
	(rect 680 2008 712 2040)
	(text "GND" (rect 8 16 29 26)(font "Arial" (font_size 6)))
	(text "inst16" (rect 3 21 32 33)(font "Arial" )(invisible))
	(port
		(pt 16 0)
		(output)
		(text "1" (rect 18 0 23 12)(font "Courier New" (bold))(invisible))
		(text "1" (rect 18 0 23 12)(font "Courier New" (bold))(invisible))
		(line (pt 16 8)(pt 16 0))
	)
	(drawing
		(line (pt 8 8)(pt 16 16))
		(line (pt 16 16)(pt 24 8))
		(line (pt 8 8)(pt 24 8))
	)
)
(symbol
	(rect 728 656 808 736)
	(text "muxlpm2d" (rect 5 0 75 16)(font "Arial" (font_size 10)))
	(text "inst17" (rect 8 64 37 76)(font "Arial" ))
	(port
		(pt 0 40)
		(input)
		(text "data1" (rect 0 0 31 14)(font "Arial" (font_size 8)))
		(text "data1" (rect 4 24 35 38)(font "Arial" (font_size 8)))
		(line (pt 0 40)(pt 32 40))
	)
	(port
		(pt 0 56)
		(input)
		(text "data0" (rect 0 0 31 14)(font "Arial" (font_size 8)))
		(text "data0" (rect 4 40 35 54)(font "Arial" (font_size 8)))
		(line (pt 0 56)(pt 32 56))
	)
	(port
		(pt 40 80)
		(input)
		(text "sel" (rect 0 0 14 16)(font "Arial" (font_size 8))(vertical))
		(text "sel" (rect 32 48 46 64)(font "Arial" (font_size 8))(vertical))
		(line (pt 40 80)(pt 40 68))
	)
	(port
		(pt 80 48)
		(output)
		(text "result" (rect 0 0 31 14)(font "Arial" (font_size 8)))
		(text "result" (rect 45 32 76 46)(font "Arial" (font_size 8)))
		(line (pt 80 48)(pt 48 48))
	)
	(drawing
		(line (pt 32 24)(pt 32 72))
		(line (pt 32 24)(pt 48 32))
		(line (pt 32 72)(pt 48 64))
		(line (pt 48 32)(pt 48 64))
		(line (pt 0 0)(pt 82 0))
		(line (pt 82 0)(pt 82 82))
		(line (pt 0 82)(pt 82 82))
		(line (pt 0 0)(pt 0 82))
		(line (pt 0 0)(pt 0 0))
		(line (pt 0 0)(pt 0 0))
		(line (pt 0 0)(pt 0 0))
		(line (pt 0 0)(pt 0 0))
	)
)
(symbol
	(rect 680 1168 712 1200)
	(text "GND" (rect 8 16 29 26)(font "Arial" (font_size 6)))
	(text "inst18" (rect 3 21 32 33)(font "Arial" )(invisible))
	(port
		(pt 16 0)
		(output)
		(text "1" (rect 18 0 23 12)(font "Courier New" (bold))(invisible))
		(text "1" (rect 18 0 23 12)(font "Courier New" (bold))(invisible))
		(line (pt 16 8)(pt 16 0))
	)
	(drawing
		(line (pt 8 8)(pt 16 16))
		(line (pt 16 16)(pt 24 8))
		(line (pt 8 8)(pt 24 8))
	)
)
(connector
	(pt 768 848)
	(pt 768 856)
)
(connector
	(pt 768 856)
	(pt 816 856)
)
(connector
	(pt 768 952)
	(pt 768 960)
)
(connector
	(pt 768 960)
	(pt 816 960)
)
(connector
	(pt 768 1056)
	(pt 768 1064)
)
(connector
	(pt 768 1064)
	(pt 816 1064)
)
(connector
	(pt 768 1160)
	(pt 768 1168)
)
(connector
	(pt 672 824)
	(pt 728 824)
)
(connector
	(pt 672 928)
	(pt 728 928)
)
(connector
	(pt 672 1032)
	(pt 728 1032)
)
(connector
	(pt 672 1136)
	(pt 728 1136)
)
(connector
	(pt 808 816)
	(pt 944 816)
)
(connector
	(pt 808 920)
	(pt 944 920)
)
(connector
	(pt 808 1024)
	(pt 944 1024)
)
(connector
	(pt 808 1128)
	(pt 944 1128)
)
(connector
	(pt 728 808)
	(pt 696 808)
)
(connector
	(pt 728 912)
	(pt 696 912)
)
(connector
	(pt 728 1016)
	(pt 696 1016)
)
(connector
	(pt 728 1120)
	(pt 696 1120)
)
(connector
	(pt 768 312)
	(pt 768 320)
)
(connector
	(pt 768 320)
	(pt 816 320)
)
(connector
	(pt 768 416)
	(pt 768 424)
)
(connector
	(pt 768 424)
	(pt 816 424)
)
(connector
	(pt 768 520)
	(pt 768 528)
)
(connector
	(pt 768 528)
	(pt 816 528)
)
(connector
	(pt 768 624)
	(pt 768 632)
)
(connector
	(pt 768 632)
	(pt 816 632)
)
(connector
	(pt 672 288)
	(pt 728 288)
)
(connector
	(pt 672 392)
	(pt 728 392)
)
(connector
	(pt 672 496)
	(pt 728 496)
)
(connector
	(pt 672 600)
	(pt 728 600)
)
(connector
	(pt 808 280)
	(pt 944 280)
)
(connector
	(pt 808 384)
	(pt 944 384)
)
(connector
	(pt 808 488)
	(pt 944 488)
)
(connector
	(pt 808 592)
	(pt 944 592)
)
(connector
	(pt 728 272)
	(pt 696 272)
)
(connector
	(pt 728 376)
	(pt 696 376)
)
(connector
	(pt 728 480)
	(pt 696 480)
)
(connector
	(pt 728 584)
	(pt 696 584)
)
(connector
	(pt 768 736)
	(pt 768 744)
)
(connector
	(pt 768 744)
	(pt 816 744)
)
(connector
	(pt 672 712)
	(pt 728 712)
)
(connector
	(pt 808 704)
	(pt 944 704)
)
(connector
	(pt 728 696)
	(pt 696 696)
)
(connector
	(pt 816 1064)
	(pt 816 1168)
)
(connector
	(pt 816 424)
	(pt 816 528)
)
(connector
	(pt 816 960)
	(pt 816 1064)
)
(connector
	(pt 696 272)
	(pt 696 376)
)
(connector
	(pt 696 376)
	(pt 696 480)
)
(connector
	(pt 696 912)
	(pt 696 1016)
)
(connector
	(pt 816 184)
	(pt 816 320)
)
(connector
	(pt 816 320)
	(pt 816 424)
)
(connector
	(pt 816 528)
	(pt 816 632)
)
(connector
	(pt 816 632)
	(pt 816 744)
)
(connector
	(pt 816 744)
	(pt 816 856)
)
(connector
	(pt 816 856)
	(pt 816 960)
)
(connector
	(pt 696 480)
	(pt 696 584)
)
(connector
	(pt 696 584)
	(pt 696 696)
)
(connector
	(pt 696 696)
	(pt 696 808)
)
(connector
	(pt 696 808)
	(pt 696 912)
)
(connector
	(pt 696 1016)
	(pt 696 1120)
)
(connector
	(pt 696 1120)
	(pt 696 1168)
)
(connector
	(pt 768 1168)
	(pt 816 1168)
)
(junction (pt 816 960))
(junction (pt 816 1064))
(junction (pt 696 912))
(junction (pt 696 1016))
(junction (pt 696 1120))
(junction (pt 816 320))
(junction (pt 816 424))
(junction (pt 816 528))
(junction (pt 816 632))
(junction (pt 816 856))
(junction (pt 696 376))
(junction (pt 696 480))
(junction (pt 696 584))
(junction (pt 696 808))
(junction (pt 816 744))
(junction (pt 696 696))
