/*
WARNING: Do NOT edit the input and output ports in this file in a text
editor if you plan to continue editing the block that represents it in
the Block Editor! File corruption is VERY likely to occur.
*/
/*
Copyright (C) 1991-2013 Altera Corporation
Your use of Altera Corporation's design tools, logic functions 
and other software and tools, and its AMPP partner logic 
functions, and any output files from any of the foregoing 
(including device programming or simulation files), and any 
associated documentation or information are expressly subject 
to the terms and conditions of the Altera Program License 
Subscription Agreement, Altera MegaCore Function License 
Agreement, or other applicable license agreement, including, 
without limitation, that your use is for the sole purpose of 
programming logic devices manufactured by Altera and sold by 
Altera or its authorized distributors.  Please refer to the 
applicable agreement for further details.
*/
(header "graphic" (version "1.4"))
(pin
	(input)
	(rect 80 40 248 56)
	(text "INPUT" (rect 125 0 153 10)(font "Arial" (font_size 6)))
	(text "clk" (rect 5 0 19 12)(font "Arial" ))
	(pt 168 8)
	(drawing
		(line (pt 84 12)(pt 109 12))
		(line (pt 84 4)(pt 109 4))
		(line (pt 113 8)(pt 168 8))
		(line (pt 84 12)(pt 84 4))
		(line (pt 109 4)(pt 113 8))
		(line (pt 109 12)(pt 113 8))
	)
	(text "VCC" (rect 128 7 148 17)(font "Arial" (font_size 6)))
)
(pin
	(input)
	(rect 64 240 256 256)
	(text "INPUT" (rect 149 0 177 10)(font "Arial" (font_size 6)))
	(text "Intstruction[31..0]" (rect 5 0 92 12)(font "Arial" ))
	(pt 192 8)
	(drawing
		(line (pt 108 12)(pt 133 12))
		(line (pt 108 4)(pt 133 4))
		(line (pt 137 8)(pt 192 8))
		(line (pt 108 12)(pt 108 4))
		(line (pt 133 4)(pt 137 8))
		(line (pt 133 12)(pt 137 8))
	)
	(text "VCC" (rect 152 7 172 17)(font "Arial" (font_size 6)))
)
(pin
	(input)
	(rect 96 136 264 152)
	(text "INPUT" (rect 125 0 153 10)(font "Arial" (font_size 6)))
	(text "PC4[31..0]" (rect 5 0 58 12)(font "Arial" ))
	(pt 168 8)
	(drawing
		(line (pt 84 12)(pt 109 12))
		(line (pt 84 4)(pt 109 4))
		(line (pt 113 8)(pt 168 8))
		(line (pt 84 12)(pt 84 4))
		(line (pt 109 4)(pt 113 8))
		(line (pt 109 12)(pt 113 8))
	)
	(text "VCC" (rect 128 7 148 17)(font "Arial" (font_size 6)))
)
(pin
	(output)
	(rect 568 224 770 240)
	(text "OUTPUT" (rect 1 0 39 10)(font "Arial" (font_size 6)))
	(text "InstructionIFID[31..0]" (rect 90 0 196 12)(font "Arial" ))
	(pt 0 8)
	(drawing
		(line (pt 0 8)(pt 52 8))
		(line (pt 52 4)(pt 78 4))
		(line (pt 52 12)(pt 78 12))
		(line (pt 52 12)(pt 52 4))
		(line (pt 78 4)(pt 82 8))
		(line (pt 82 8)(pt 78 12))
		(line (pt 78 12)(pt 82 8))
	)
)
(pin
	(output)
	(rect 568 120 744 136)
	(text "OUTPUT" (rect 1 0 39 10)(font "Arial" (font_size 6)))
	(text "PC4IFID[31..0]" (rect 90 0 165 12)(font "Arial" ))
	(pt 0 8)
	(drawing
		(line (pt 0 8)(pt 52 8))
		(line (pt 52 4)(pt 78 4))
		(line (pt 52 12)(pt 78 12))
		(line (pt 52 12)(pt 52 4))
		(line (pt 78 4)(pt 82 8))
		(line (pt 82 8)(pt 78 12))
		(line (pt 78 12)(pt 82 8))
	)
)
(symbol
	(rect 400 96 568 192)
	(text "pipelinereg" (rect 5 0 66 14)(font "Arial" (font_size 8)))
	(text "inst" (rect 8 80 25 92)(font "Arial" ))
	(port
		(pt 0 32)
		(input)
		(text "clk" (rect 0 0 15 14)(font "Arial" (font_size 8)))
		(text "clk" (rect 21 27 36 41)(font "Arial" (font_size 8)))
		(line (pt 0 32)(pt 16 32))
	)
	(port
		(pt 0 48)
		(input)
		(text "dataIn[31..0]" (rect 0 0 69 14)(font "Arial" (font_size 8)))
		(text "dataIn[31..0]" (rect 21 43 90 57)(font "Arial" (font_size 8)))
		(line (pt 0 48)(pt 16 48)(line_width 3))
	)
	(port
		(pt 168 32)
		(output)
		(text "Q[31..0]" (rect 0 0 44 14)(font "Arial" (font_size 8)))
		(text "Q[31..0]" (rect 103 27 147 41)(font "Arial" (font_size 8)))
		(line (pt 168 32)(pt 152 32)(line_width 3))
	)
	(drawing
		(rectangle (rect 16 16 152 80))
	)
)
(symbol
	(rect 400 200 568 296)
	(text "pipelinereg" (rect 5 0 66 14)(font "Arial" (font_size 8)))
	(text "instRegIFID" (rect 8 80 68 92)(font "Arial" ))
	(port
		(pt 0 32)
		(input)
		(text "clk" (rect 0 0 15 14)(font "Arial" (font_size 8)))
		(text "clk" (rect 21 27 36 41)(font "Arial" (font_size 8)))
		(line (pt 0 32)(pt 16 32))
	)
	(port
		(pt 0 48)
		(input)
		(text "dataIn[31..0]" (rect 0 0 69 14)(font "Arial" (font_size 8)))
		(text "dataIn[31..0]" (rect 21 43 90 57)(font "Arial" (font_size 8)))
		(line (pt 0 48)(pt 16 48)(line_width 3))
	)
	(port
		(pt 168 32)
		(output)
		(text "Q[31..0]" (rect 0 0 44 14)(font "Arial" (font_size 8)))
		(text "Q[31..0]" (rect 103 27 147 41)(font "Arial" (font_size 8)))
		(line (pt 168 32)(pt 152 32)(line_width 3))
	)
	(drawing
		(rectangle (rect 16 16 152 80))
	)
)
(symbol
	(rect 312 56 360 120)
	(text "AND2" (rect 0 1 10 25)(font "Arial" (font_size 6))(vertical))
	(text "inst2" (rect 37 3 49 26)(font "Arial" )(vertical))
	(port
		(pt 16 0)
		(input)
		(text "IN1" (rect 2 7 19 19)(font "Courier New" (bold))(invisible))
		(text "IN1" (rect 7 2 19 19)(font "Courier New" (bold))(vertical)(invisible))
		(line (pt 16 0)(pt 16 14))
	)
	(port
		(pt 32 0)
		(input)
		(text "IN2" (rect 2 23 19 35)(font "Courier New" (bold))(invisible))
		(text "IN2" (rect 23 2 35 19)(font "Courier New" (bold))(vertical)(invisible))
		(line (pt 32 0)(pt 32 14))
	)
	(port
		(pt 24 64)
		(output)
		(text "OUT" (rect 48 15 65 27)(font "Courier New" (bold))(invisible))
		(text "OUT" (rect 15 48 27 65)(font "Courier New" (bold))(vertical)(invisible))
		(line (pt 24 42)(pt 24 64))
	)
	(drawing
		(line (pt 12 14)(pt 12 30))
		(line (pt 37 14)(pt 37 31))
		(line (pt 12 14)(pt 37 14))
		(arc (pt 12 30)(pt 37 31)(rect 12 18 37 43))
	)
	(flipy_rotate90)
)
(connector
	(pt 400 144)
	(pt 264 144)
	(bus)
)
(connector
	(pt 256 248)
	(pt 400 248)
	(bus)
)
(connector
	(pt 400 128)
	(pt 336 128)
)
(connector
	(pt 336 232)
	(pt 400 232)
)
(connector
	(pt 336 120)
	(pt 336 128)
)
(connector
	(pt 336 128)
	(pt 336 232)
)
(connector
	(pt 328 56)
	(pt 328 48)
)
(connector
	(pt 344 48)
	(pt 344 56)
)
(connector
	(pt 248 48)
	(pt 328 48)
)
(connector
	(pt 328 48)
	(pt 344 48)
)
(junction (pt 336 128))
(junction (pt 328 48))
